{
"name": [0,1,2,3,4,5,6,7,8,9,10,11,12,13,14,15],
"data": ["levels/0.pop","levels/1.pop","levels/2.pop","levels/3.pop","levels/4.pop","levels/5.pop","levels/6.pop","levels/7.pop","levels/8.pop","levels/9.pop","levels/10.pop","levels/11.pop","levels/12.pop","levels/13.pop","levels/14.pop","levels/15.pop"],
"numVertices": "60705",
"xmin": -285.045,
"ymin": -14.9509,
"zmin": -199.296,
"xmax": 164.254,
"ymax": 15.2003,
"zmax": 141.241,
"factor": 65535,
"levelCount": 16,
"levels": [18,399,1167,3441,7146,10791,14763,19527,25722,33309,41748,49626,56214,59997,60594,60705],
"alpha": 0.5
}
