{
  "Otros funcionarios de gobierno": "Other government workers",
  "Fuerzas de seguridad": "Security forces",
  "Otras acciones": "Other actions",
  "Infraestructura": "Infrastructure",
  "Otras personas": "Other people",
  "Equipamento": "Equipment",
  "Presuntos miembros del crimen organizado": "Alleged members of organized crime",
  "Vehículos": "Vehicles",
  "Coordinación y movimiento": "Coordination and movement",
  "Violencia": "Violence",
  "Víctimas": "Victims",
  "Coordinación": "Coordination",
  "Equipamiento": "Equipment",
  "Gobierno Federal": "Federal Government",
  "Ejército": "Military",
  "Evento": "Event",
  "Infraestructura de comunicación": "Communication infrastructure",
  "Otros": "Other",
  "Armas": "Weapons",
  "Individuos": "Individuals",
  "Ambulancias": "Ambulances",
  "Médico": "Medical personnel",
  "Violencia contra las personas": "Violence against people",
  "Gobierno Estatal": "State Government",
  "Otros vehículos": "Other vehicles",
  "Buses": "Buses",
  "Investigación": "Investigation",
  "Los Avispones y otros presentes en Santa Teresa": "Los Avispones and other people in Santa Teresa",
  "Familiares y otras víctimas": "Family members and other victims",
  "Coordinación": "Coordination",
  "Movimiento": "Movement",
  "Expertos forenses independientes": "Independent forensic experts",
  "Patrullas": "Patrol cars",
  "Grupos": "Groups",
  "Compañías e instituciones": "Companies and institutions",
  "Violencia contra la evidencia": "Violence against evidence",
  "Conductores de bus": "Bus drivers",
  "Conductores de Taxi": "Taxi drivers",
  "Canal de comunicación": "Communication channels",
  "Proceso Legal": "Legal process",
  "Policía Estatal": "State police",
  "Expertos forenses gubernamentales": "Government led forensic experts",
  "Personal médico": "Medical personnel",
  "Policía Municipal de Iguala": "Iguala Municipal Police",
  "Policía Municipal de Huitzuco": "Huitzuco Municipal Police",
  "Estudiantes sobrevivientes": "Surviving students",
  "Estudiantes desaparecidos": "Disappeared students",
  "Estudiantes asesinados": "Murdered students",
  "Otras acciones": "Other actions",
  "Gobierno Municipal": "Municipal Government",
  "Protección Civil Estatal": "State Civil Protection",
  "Gobierno": "Government",
  "Otras fuerzas de seguridad": "Other security forces",
  "Policía Federal": "Federal Police",
  "Policía Municipal de Cocula": "Cocula Municipal Police",
  "Policía Federal Ministerial": "Federal Ministerial Police",
  "Policía Estatal Ministerial": "State Ministerial Police",
  "Protección Civil Municipal": "Civil Municipal Protection",
  "Protección Civil Municipal de Iguala": "Iguala Civil Municipal Protection",
  "Normal de Ayotzinapa": "Normal de Ayotzinapa (School)",
  "Taxis": "Taxis"
}
