{
"name": [0,1,2,3,4,5,6,7,8,9,10,11,12,13,14,15],
"data": ["levels/0.pop","levels/1.pop","levels/2.pop","levels/3.pop","levels/4.pop","levels/5.pop","levels/6.pop","levels/7.pop","levels/8.pop","levels/9.pop","levels/10.pop","levels/11.pop","levels/12.pop","levels/13.pop","levels/14.pop","levels/15.pop"], 
"numVertices": "262704",
"xmin": -96.2789,
"ymin": -3.6827,
"zmin": 8.4456,
"xmax": 26.13,
"ymax": 1.5874,
"zmax": 542.782,
"factor": 65535,
"levelCount": 16,
"levels": [0,51,270,1461,5811,18066,41724,81198,131571,177432,215322,239421,253059,259806,262044,262704],
"alpha": 1
}
