[
  {
    "location": {
      "latitude": 18.3574,
      "longitude": -99.53614
    },
    "name": "Esquina Juan N. Álvarez y Perif. Norte"
  },
  {
    "location": {
      "latitude": 18.33074,
      "longitude": -99.50791
    },
    "name": "Palacio de Justicia"
  },
  {
    "location": {
      "latitude": 18.23267,
      "longitude": -99.53179
    },
    "name": "Cruce de Santa Teresa"
  },
  {
    "location": {
      "latitude": 19.432129,
      "longitude": -99.133215
    },
    "name": "Ciudad de México"
  },  
  {
    "location": {
      "latitude": 18.34782,
      "longitude": -99.5322
    },
    "name": "Comandancia de la Policía Municipal de Iguala (Barandillas)"
  },
  {
    "location": {
      "latitude": 18.34062,
      "longitude": -99.52944
    },
    "name": "Policía Federal"
  },
  {
    "location": {
      "latitude": 18.34127,
      "longitude": -99.50312
    },
    "name": "Cuartel Policía Estatal en Iguala"
  },
  {
    "location": {
      "latitude": 18.34509,
      "longitude": -99.54047
    },
    "name": "Zócalo"
  },
  {
    "location": {
      "latitude": 18.34368,
      "longitude": -99.52633
    },
    "name": "27 Batallón de Infantería"
  },
  {
    "location": {
      "latitude": 18.33944,
      "longitude": -99.54102
    },
    "name": "Terminal de Autobuses"
  },
  {
    "location": {
      "latitude": 17.54579,
      "longitude": -99.50472
    },
    "name": "35 Zona Militar"
  },
  {
    "location": {
      "latitude": 17.55316,
      "longitude": -99.4103
    },
    "name": "Escuela Normal Rural de Ayotzinapa"
  },
  {
    "location": {
      "latitude": 17.55127,
      "longitude": -99.50059
    },
    "name": "C-4 Chilpancingo"
  },
  {
    "location": {
      "latitude": 18.35985,
      "longitude": -99.5352
    },
    "name": "C-4 Iguala"
  },
  {
    "location": {
      "latitude": 18.23583,
      "longitude": -99.66113
    },
    "name": "Comandancia de la Policía Municipal de Cocula"
  },
  {
    "location": {
      "latitude": 18.35848,
      "longitude": -99.53009
    },
    "name": "Escena del crimen de Julio César Mondragón Fontes"
  },
  {
    "location": {
      "latitude": 18.30592,
      "longitude": -99.33399
    },
    "name": "Huitzuco"
  },
  {
    "location": {
      "latitude": 18.20494,
      "longitude": -99.60543
    },
    "name": "Basurero de Cocula"
  }
]
