{
"name": [0,1,2,3,4,5,6,7,8,9,10,11,12,13,14,15],
"data": ["levels/0.pop","levels/1.pop","levels/2.pop","levels/3.pop","levels/4.pop","levels/5.pop","levels/6.pop","levels/7.pop","levels/8.pop","levels/9.pop","levels/10.pop","levels/11.pop","levels/12.pop","levels/13.pop","levels/14.pop","levels/15.pop"], 
"numVertices": "159069",
"xmin": -109.855,
"ymin": -0.9521,
"zmin": 11.0396,
"xmax": 11.3381,
"ymax": 2.8188,
"zmax": 605.878,
"factor": 65535,
"levelCount": 16,
"levels": [0,0,216,999,3981,11643,26346,50739,79242,107247,129267,144597,153354,156915,158094,159069],
"alpha": 1
}
