{
"name": [0,1,2,3,4,5,6,7,8,9,10,11,12,13,14,15],
"data": ["levels/0.pop","levels/1.pop","levels/2.pop","levels/3.pop","levels/4.pop","levels/5.pop","levels/6.pop","levels/7.pop","levels/8.pop","levels/9.pop","levels/10.pop","levels/11.pop","levels/12.pop","levels/13.pop","levels/14.pop","levels/15.pop"], 
"numVertices": "589782",
"xmin": -20.5541,
"ymin": -5.1287,
"zmin": -40.8545,
"xmax": 16.7917,
"ymax": -0.176,
"zmax": 40.0622,
"factor": 65535,
"levelCount": 16,
"levels": [12,150,1203,5634,19254,51249,121533,235674,370650,474477,541590,574686,584451,587622,588915,589782],
"alpha": 1
}
