[
  {
  "location_id": 4308,
  "name": "escena del crimen-Juan Alvarez y Perif. Norte (8)",
  "latitude": 18.35746,
  "longitude": -99.53614,
  "events": [
  {
    "id": 4308,
    "manual_id": 2221,
    "name_key": "Los normalistas refieren que cuando trataban de atender a Aldo estando gravemente\nherido en el suelo, recibieron disparos",
    "description": "Los normalistas refieren que cuando trataban de atender a Aldo estando gravemente\nherido en el suelo, recibieron disparos",
    "rain": "NULL",
    "timestamp": "NULL",
    "timestamp_precise": 0,
    "publicly_accessible": 0,
    "location_id": 4308,
    "source_id": 9507,
    "name": "escena del crimen-Juan Alvarez y Perif. Norte (8)",
    "latitude": 18.35746,
    "longitude": -99.53614,
    "extra_detail": "NULL"
  },
  {
    "id": 4308,
    "manual_id": 2203,
    "name_key": "en ese momento los policas municipales dispararon sus armas de fuego hacia nosotros, de una distancia aproximada de diez metros, dando un impacto de bala a mi compaero normalista, Aldo Gutirrez Solan",
    "description": "en ese momento los policas municipales dispararon sus armas de fuego hacia nosotros, de una distancia aproximada de diez metros, dando un impacto de bala a mi compaero normalista, Aldo Gutirrez Solano, a la altura de la cabeza",
    "rain": "NULL",
    "timestamp": "2014-09-26 21:48:00.000000",
    "timestamp_precise": 0,
    "publicly_accessible": 0,
    "location_id": 4308,
    "source_id": 9506,
    "name": "escena del crimen-Juan Alvarez y Perif. Norte (8)",
    "latitude": 18.35746,
    "longitude": -99.53614,
    "extra_detail": "NULL"
  },
  {
    "id": 4308,
    "manual_id": 2204,
    "name_key": "Nos cierran el paso con una patrulla, al detenernos seguan disparndonos y al ver que nos bloquearon el paso nos bajamos de los autobuses y me met al volante de la patrulla percatndome que tena las lla",
    "description": "Nos cierran el paso con una patrulla, al detenernos seguan disparndonos y al ver que nos bloquearon el paso nos bajamos de los autobuses y me met al volante de la patrulla percatndome que tena las llaves pegadas para intentar moverla, sin embargo, no lo pude hacer ya que en ese momento uno de mis compaeros me saca de la patrulla sealando a un compaero que se encontraba en el suelo, percatndome en ese momento que se trataba de Aldo",
    "rain": "NULL",
    "timestamp": "2014-09-26 21:48:00.000000",
    "timestamp_precise": 0,
    "publicly_accessible": 0,
    "location_id": 4308,
    "source_id": 9506,
    "name": "escena del crimen-Juan Alvarez y Perif. Norte (8)",
    "latitude": 18.35746,
    "longitude": -99.53614,
    "extra_detail": "NULL"
  },
  {
    "id": 4308,
    "manual_id": 2225,
    "name_key": "Al percatarnos del compaero Aldo todava mostraba reacciones de vida, todava\nconvulsionaba, quisimos apoyarlo, pero cada vez que intentbamos asomarnos\nnos abran fuego, no nos dejaban. En esta ocasin, y",
    "description": "Al percatarnos del compaero Aldo todava mostraba reacciones de vida, todava\nconvulsionaba, quisimos apoyarlo, pero cada vez que intentbamos asomarnos\nnos abran fuego, no nos dejaban. En esta ocasin, yo en mi persona, hice tres\nintentos, para acercarme a l, para poder ayudarlo, y lo que fue en el tercero,\ndonde logr llegar con otros dos compaeros, a pesar de que mis compaeros\nme decan que no fueran, alcanc lo que era a llegar donde estaba el cuerpo\ntendido, agarr mi playera y lo que hice fue ponerla en la cabeza, hacer presin\npara controlar la hemorragia, en el cual los policas me dijeron, trate al suelo te\nvamos a matar",
    "rain": "NULL",
    "timestamp": "2014-09-26 21:48:00.000000",
    "timestamp_precise": 0,
    "publicly_accessible": 0,
    "location_id": 4308,
    "source_id": 9508,
    "name": "escena del crimen-Juan Alvarez y Perif. Norte (8)",
    "latitude": 18.35746,
    "longitude": -99.53614,
    "extra_detail": "NULL"
  },
  {
    "id": 4308,
    "manual_id": 2219,
    "name_key": "as que le ped a un amigo que marcara para pedir una ambulancia, entonces, como a la media hora lleg una ambulancia y se llev a Aldo Gutirrez.",
    "description": "as que le ped a un amigo que marcara para pedir una ambulancia, entonces, como a la media hora lleg una ambulancia y se llev a Aldo Gutirrez.",
    "rain": "NULL",
    "timestamp": "2014-09-26 21:49:00.000000",
    "timestamp_precise": 0,
    "publicly_accessible": 0,
    "location_id": 4308,
    "source_id": 9506,
    "name": "escena del crimen-Juan Alvarez y Perif. Norte (8)",
    "latitude": 18.35746,
    "longitude": -99.53614,
    "extra_detail": "NULL"
  },
  {
    "id": 4308,
    "manual_id": 2226,
    "name_key": "fue cuando les dije vmonos, empezamos a correr y nos empezaron\na disparar, informa el normalista TC en testimonio ante el GIEI.",
    "description": "fue cuando les dije vmonos, empezamos a correr y nos empezaron\na disparar, informa el normalista TC en testimonio ante el GIEI.",
    "rain": "NULL",
    "timestamp": "2014-09-26 21:49:00.000000",
    "timestamp_precise": 0,
    "publicly_accessible": 0,
    "location_id": 4308,
    "source_id": 9508,
    "name": "escena del crimen-Juan Alvarez y Perif. Norte (8)",
    "latitude": 18.35746,
    "longitude": -99.53614,
    "extra_detail": "NULL"
  },
  {
    "id": 4308,
    "manual_id": 2657,
    "name_key": "El caso de Julio Csar Mondragn muestra el nivel de atrocidades cometidas esa noche, esta vez contra uno de los normalistas que qued aislado del resto. Segn los testimonios de algunos de los normalista",
    "description": "El caso de Julio Csar Mondragn muestra el nivel de atrocidades cometidas esa noche, esta vez contra uno de los normalistas que qued aislado del resto. Segn los testimonios de algunos de los normalistas que se encontraban en el escenario de la calle Juan N. lvarez y Perifrico Norte a las 22:00 horas, mientras eran atacados por la polica y cuando aun Aldo estaba en el suelo agonizando, Julio Csar Mondragn, apodado el Chilango entre los normalistas, les dijo a otros compaeros que haba grabado varios videos con un telfono. Varios testigos sealaron que se encontraba muy afectado por lo sucedido.",
    "rain": "NULL",
    "timestamp": "2014-09-26 22:00:00.000000",
    "timestamp_precise": 0,
    "publicly_accessible": 0,
    "location_id": 4308,
    "source_id": 9588,
    "name": "escena del crimen-Juan Alvarez y Perif. Norte (8)",
    "latitude": 18.35746,
    "longitude": -99.53614,
    "extra_detail": "NULL"
  }]
  },
  {
  "location_id": 4341,
  "name": "escena del crimen-Juan Alvarez y Perif. Norte (7)",
  "latitude": 18.35688,
  "longitude": -99.53631,
  "events": [
  {
    "id": 4341,
    "manual_id": 2168,
    "name_key": "\\",
    "description": "\\",
    "rain": "NULL",
    "timestamp": "2014-09-26 21:40:00.000000",
    "timestamp_precise": 0,
    "publicly_accessible": 0,
    "location_id": 4341,
    "source_id": 9501,
    "name": "escena del crimen-Juan Alvarez y Perif. Norte (7)",
    "latitude": 18.35688,
    "longitude": -99.53631,
    "extra_detail": "NULL"
  },
  {
    "id": 4341,
    "manual_id": 2172,
    "name_key": "En la persecucin tambin particip la unidad 019, dirigida por Rubn Alday Marn, y la unidad 028, dirigida por Alejandro Andrade de la Cruz",
    "description": "En la persecucin tambin particip la unidad 019, dirigida por Rubn Alday Marn, y la unidad 028, dirigida por Alejandro Andrade de la Cruz",
    "rain": "NULL",
    "timestamp": "2014-09-26 21:40:00.000000",
    "timestamp_precise": 0,
    "publicly_accessible": 0,
    "location_id": 4341,
    "source_id": 9502,
    "name": "escena del crimen-Juan Alvarez y Perif. Norte (7)",
    "latitude": 18.35688,
    "longitude": -99.53631,
    "extra_detail": "NULL"
  },
  {
    "id": 4341,
    "manual_id": 2174,
    "name_key": "ambos estuvieron presentes en calle uan N. lvarez y Perifrico Norte, aunque ninguno refiere en sus declaraciones que los autobuses fueran baleados, ni las llantas ponchadas como muestran todas las evi",
    "description": "ambos estuvieron presentes en calle uan N. lvarez y Perifrico Norte, aunque ninguno refiere en sus declaraciones que los autobuses fueran baleados, ni las llantas ponchadas como muestran todas las evidencias cientficas de criminalstica, pruebas testificales y testimonios.",
    "rain": "NULL",
    "timestamp": "2014-09-26 21:40:00.000000",
    "timestamp_precise": 0,
    "publicly_accessible": 0,
    "location_id": 4341,
    "source_id": 9502,
    "name": "escena del crimen-Juan Alvarez y Perif. Norte (7)",
    "latitude": 18.35688,
    "longitude": -99.53631,
    "extra_detail": "NULL"
  },
  {
    "id": 4341,
    "manual_id": 2201,
    "name_key": "Las patrullas que persiguieron por la parte de atrs a la comitiva de normalistas eran de la polica municipal de Iguala y los policas llevaban el uniforme habitual.",
    "description": "Las patrullas que persiguieron por la parte de atrs a la comitiva de normalistas eran de la polica municipal de Iguala y los policas llevaban el uniforme habitual.",
    "rain": "NULL",
    "timestamp": "2014-09-26 21:40:00.000000",
    "timestamp_precise": 0,
    "publicly_accessible": 0,
    "location_id": 4341,
    "source_id": 9505,
    "name": "escena del crimen-Juan Alvarez y Perif. Norte (7)",
    "latitude": 18.35688,
    "longitude": -99.53631,
    "extra_detail": "NULL"
  },
  {
    "id": 4341,
    "manual_id": 2169,
    "name_key": "Ah nos estn disparando a matarnos. Algunos chavos estn sentados en los asientos y otros tirados en el pasillo para protegerse de los disparos",
    "description": "Ah nos estn disparando a matarnos. Algunos chavos estn sentados en los asientos y otros tirados en el pasillo para protegerse de los disparos",
    "rain": "NULL",
    "timestamp": "2014-09-26 21:41:00.000000",
    "timestamp_precise": 0,
    "publicly_accessible": 0,
    "location_id": 4341,
    "source_id": 9501,
    "name": "escena del crimen-Juan Alvarez y Perif. Norte (7)",
    "latitude": 18.35688,
    "longitude": -99.53631,
    "extra_detail": "NULL"
  },
  {
    "id": 4341,
    "manual_id": 2219,
    "name_key": "P-Alejandro Andrade de la Cruz de Patrulla 28 llama al operador de radio para una ambulancia.",
    "description": "P-Alejandro Andrade de la Cruz de Patrulla 28 llama al operador de radio para una ambulancia.",
    "rain": "NULL",
    "timestamp": "2014-09-26 21:49:00.000000",
    "timestamp_precise": "NULL",
    "publicly_accessible": 0,
    "location_id": 4341,
    "source_id": 9506,
    "name": "escena del crimen-Juan Alvarez y Perif. Norte (7)",
    "latitude": 18.35688,
    "longitude": -99.53631,
    "extra_detail": "NULL"
  },
  {
    "id": 4341,
    "manual_id": 2318,
    "name_key": "llegaron las patrullas 017, 018, 020, 022 y 028. Las patrullas hicieron dos o tres viajes, un polica les deca t, t, t y los suban a las patrullas. Eran policas municipales.",
    "description": "llegaron las patrullas 017, 018, 020, 022 y 028. Las patrullas hicieron dos o tres viajes, un polica les deca t, t, t y los suban a las patrullas. Eran policas municipales.",
    "rain": "NULL",
    "timestamp": "2014-09-26 22:50:00.000000",
    "timestamp_precise": 0,
    "publicly_accessible": 0,
    "location_id": 4341,
    "source_id": 9523,
    "name": "escena del crimen-Juan Alvarez y Perif. Norte (7)",
    "latitude": 18.35688,
    "longitude": -99.53631,
    "extra_detail": "NULL"
  },
  {
    "id": 4341,
    "manual_id": 2486,
    "name_key": "Se tir hacia la banqueta, se rod y se fue corriendo como pudo en la calle. Solicit un taxi de un celular de un compaero y se fue solo en el taxi",
    "description": "Se tir hacia la banqueta, se rod y se fue corriendo como pudo en la calle. Solicit un taxi de un celular de un compaero y se fue solo en el taxi",
    "rain": "NULL",
    "timestamp": "2014-09-27 00:31:00.000000",
    "timestamp_precise": "NULL",
    "publicly_accessible": 0,
    "location_id": 4341,
    "source_id": 9553,
    "name": "escena del crimen-Juan Alvarez y Perif. Norte (7)",
    "latitude": 18.35688,
    "longitude": -99.53631,
    "extra_detail": "NULL"
  },
  {
    "id": 4341,
    "manual_id": 2516,
    "name_key": "posteriormente llevado por ellos a la clnica Cristina, que se encontraba en la misma calle, unos 500 metros atrs.",
    "description": "posteriormente llevado por ellos a la clnica Cristina, que se encontraba en la misma calle, unos 500 metros atrs.",
    "rain": "NULL",
    "timestamp": "2014-09-27 00:47:00.000000",
    "timestamp_precise": "NULL",
    "publicly_accessible": 0,
    "location_id": 4341,
    "source_id": 9558,
    "name": "escena del crimen-Juan Alvarez y Perif. Norte (7)",
    "latitude": 18.35688,
    "longitude": -99.53631,
    "extra_detail": "NULL"
  }]
  },
  {
  "location_id": 4342,
  "name": "escena del crimen-Juan Alvarez y Perif. Norte (6)",
  "latitude": 18.35699,
  "longitude": -99.53628,
  "events": [{
    "id": 4342,
    "manual_id": 2227,
    "name_key": "En el tercer autobs, el Estrella de Oro 1568, iban de 25 a 30 normalistas.",
    "description": "En el tercer autobs, el Estrella de Oro 1568, iban de 25 a 30 normalistas.",
    "rain": "NULL",
    "timestamp": "NULL",
    "timestamp_precise": 0,
    "publicly_accessible": 0,
    "location_id": 4342,
    "source_id": 9508,
    "name": "escena del crimen-Juan Alvarez y Perif. Norte (6)",
    "latitude": 18.35699,
    "longitude": -99.53628,
    "extra_detail": "NULL"
  },
  {
    "id": 4342,
    "manual_id": 2270,
    "name_key": "La evacuacin de la polica y de los normalistas detenidos se hizo al mismo tiempo\nen las partes de adelante y detrs de la comitiva de autobuses",
    "description": "La evacuacin de la polica y de los normalistas detenidos se hizo al mismo tiempo\nen las partes de adelante y detrs de la comitiva de autobuses",
    "rain": "NULL",
    "timestamp": "2014-09-25 22:50:00.000000",
    "timestamp_precise": 0,
    "publicly_accessible": 0,
    "location_id": 4342,
    "source_id": 9513,
    "name": "escena del crimen-Juan Alvarez y Perif. Norte (6)",
    "latitude": 18.35699,
    "longitude": -99.53628,
    "extra_detail": "NULL"
  },
  {
    "id": 4342,
    "manual_id": 2198,
    "name_key": "Todos los autobuses fueron tiroteados, quedaron muchos cristales rotos y las carroceras agujereadas, especialmente en el caso del ltimo autobs, Estrella de Oro 1568, que result con treinta disparos qu",
    "description": "Todos los autobuses fueron tiroteados, quedaron muchos cristales rotos y las carroceras agujereadas, especialmente en el caso del ltimo autobs, Estrella de Oro 1568, que result con treinta disparos que impactaron el interior del autobs",
    "rain": "NULL",
    "timestamp": "2014-09-26 21:40:00.000000",
    "timestamp_precise": "NULL",
    "publicly_accessible": 0,
    "location_id": 4342,
    "source_id": 9504,
    "name": "escena del crimen-Juan Alvarez y Perif. Norte (6)",
    "latitude": 18.35699,
    "longitude": -99.53628,
    "extra_detail": "NULL"
  },
  {
    "id": 4342,
    "manual_id": 2170,
    "name_key": "Se para el autobs porque ya no poda pasar. Se paran los 3 autobuses, siguen disparando, le disparan y pincharon todas las llantas, empezaron a disparar a matarnos, relata el normalista FM.",
    "description": "Se para el autobs porque ya no poda pasar. Se paran los 3 autobuses, siguen disparando, le disparan y pincharon todas las llantas, empezaron a disparar a matarnos, relata el normalista FM.",
    "rain": "NULL",
    "timestamp": "2014-09-26 21:42:00.000000",
    "timestamp_precise": 0,
    "publicly_accessible": 0,
    "location_id": 4342,
    "source_id": 9502,
    "name": "escena del crimen-Juan Alvarez y Perif. Norte (6)",
    "latitude": 18.35699,
    "longitude": -99.53628,
    "extra_detail": "NULL"
  },
  {
    "id": 4342,
    "manual_id": 2262,
    "name_key": "Para tratar de protegerse de la agresin los normalistas cerraron la puerta del Estrella de\nOro 1568, hasta que fueron obligados a bajar por la polica",
    "description": "Para tratar de protegerse de la agresin los normalistas cerraron la puerta del Estrella de\nOro 1568, hasta que fueron obligados a bajar por la polica",
    "rain": "NULL",
    "timestamp": "2014-09-26 22:35:00.000000",
    "timestamp_precise": 0,
    "publicly_accessible": 0,
    "location_id": 4342,
    "source_id": 9512,
    "name": "escena del crimen-Juan Alvarez y Perif. Norte (6)",
    "latitude": 18.35699,
    "longitude": -99.53628,
    "extra_detail": "NULL"
  },
  {
    "id": 4342,
    "manual_id": 2263,
    "name_key": "Al poco rato mi camarada el Cochiloco le dice al chofer Sabes qu? Bjate y diles que nos vamos a entregar.",
    "description": "Al poco rato mi camarada el Cochiloco le dice al chofer Sabes qu? Bjate y diles que nos vamos a entregar.",
    "rain": "NULL",
    "timestamp": "2014-09-26 22:35:00.000000",
    "timestamp_precise": 0,
    "publicly_accessible": 0,
    "location_id": 4342,
    "source_id": 9512,
    "name": "escena del crimen-Juan Alvarez y Perif. Norte (6)",
    "latitude": 18.35699,
    "longitude": -99.53628,
    "extra_detail": "NULL"
  },
  {
    "id": 4342,
    "manual_id": 2488,
    "name_key": "Subimos al tercer autobs para ver la desgracia, vimos el pasillo lleno de sangre, en el asiento, en el primer asiento estaban los cuajos de sangre y la credencial del compaero Cochiloco, y lo que era",
    "description": "Subimos al tercer autobs para ver la desgracia, vimos el pasillo lleno de sangre, en el asiento, en el primer asiento estaban los cuajos de sangre y la credencial del compaero Cochiloco, y lo que era en la parte de la ventanilla del chofer vimos pedazos de carne, como si le hubieran dado un disparo a quemarropa en esa parte y hubiera quedado carne todava en el cristal. Los cristales despedazados, los rines igual, la carroza... totalmente. Yo al entrar al autobs encontr todava lo que era una bala percutida, y de las cortinas noms se vean dnde estaban los orificios de bala, dijo el normalista TC en testimonio ante el GIEI.",
    "rain": "NULL",
    "timestamp": "2014-09-26 23:00:00.000000",
    "timestamp_precise": "NULL",
    "publicly_accessible": 0,
    "location_id": 4342,
    "source_id": 9553,
    "name": "escena del crimen-Juan Alvarez y Perif. Norte (6)",
    "latitude": 18.35699,
    "longitude": -99.53628,
    "extra_detail": "NULL"
  },
  {
    "id": 4342,
    "manual_id": 5736,
    "name_key": "Los normalistas recin llegados contactaron a los que haban sido agredidos anteriormente. Varios se subieron al autobs Estrella de Oro 1568 y algunos tomaron fotografas de los detalles de la agresin",
    "description": "Los normalistas recin llegados contactaron a los que haban sido agredidos anteriormente. Varios se subieron al autobs Estrella de Oro 1568 y algunos tomaron fotografas de los detalles de la agresin",
    "rain": "NULL",
    "timestamp": "2014-09-26 23:31:00.000000",
    "timestamp_precise": "NULL",
    "publicly_accessible": 0,
    "location_id": 4342,
    "source_id": 9543,
    "name": "escena del crimen-Juan Alvarez y Perif. Norte (6)",
    "latitude": 18.35699,
    "longitude": -99.53628,
    "extra_detail": "NULL"
  },
  {
    "id": 4342,
    "manual_id": 23177,
    "name_key": "Tambin llegaron algunos periodistas de medios locales y nacionales que residan en Iguala. El normalista M les explicaba lo que haba ocurrido, y subieron al tercer autobs Estrella de Oro, lleno de sang",
    "description": "Tambin llegaron algunos periodistas de medios locales y nacionales que residan en Iguala. El normalista M les explicaba lo que haba ocurrido, y subieron al tercer autobs Estrella de Oro, lleno de sangre en la entrada.",
    "rain": "NULL",
    "timestamp": "2014-09-27 00:00:00.000000",
    "timestamp_precise": "NULL",
    "publicly_accessible": 0,
    "location_id": 4342,
    "source_id": 9555,
    "name": "escena del crimen-Juan Alvarez y Perif. Norte (6)",
    "latitude": 18.35699,
    "longitude": -99.53628,
    "extra_detail": "NULL"
  }]
  },
  {
  "location_id": 4343,
  "name": "escena del crimen-Juan Alvarez y Perif. Norte (10)",
  "latitude": 18.35746,
  "longitude": -99.53596,
  "events": [
  {
    "id": 4343,
    "manual_id": 2171,
    "name_key": "En la persecucin tambin particip la unidad 019, dirigida por Rubn Alday Marn, y la unidad 028, dirigida por Alejandro Andrade de la Cruz",
    "description": "En la persecucin tambin particip la unidad 019, dirigida por Rubn Alday Marn, y la unidad 028, dirigida por Alejandro Andrade de la Cruz",
    "rain": "NULL",
    "timestamp": "2014-09-26 21:40:00.000000",
    "timestamp_precise": 0,
    "publicly_accessible": 0,
    "location_id": 4343,
    "source_id": 9502,
    "name": "escena del crimen-Juan Alvarez y Perif. Norte (10)",
    "latitude": 18.35746,
    "longitude": -99.53596,
    "extra_detail": "NULL"
  },
  {
    "id": 4343,
    "manual_id": 2173,
    "name_key": "ambos estuvieron presentes en calle uan N. lvarez y Perifrico Norte, aunque ninguno refiere en sus declaraciones que los autobuses fueran baleados, ni las llantas ponchadas como muestran todas las evi",
    "description": "ambos estuvieron presentes en calle uan N. lvarez y Perifrico Norte, aunque ninguno refiere en sus declaraciones que los autobuses fueran baleados, ni las llantas ponchadas como muestran todas las evidencias cientficas de criminalstica, pruebas testificales y testimonios.",
    "rain": "NULL",
    "timestamp": "2014-09-26 21:40:00.000000",
    "timestamp_precise": 0,
    "publicly_accessible": 0,
    "location_id": 4343,
    "source_id": 9502,
    "name": "escena del crimen-Juan Alvarez y Perif. Norte (10)",
    "latitude": 18.35746,
    "longitude": -99.53596,
    "extra_detail": "NULL"
  }]
  },
  {
  "location_id": 4346,
  "name": "escena del crimen-Juan Alvarez y Perif. Norte (9)",
  "latitude": 18.35745,
  "longitude": -99.53609,
  "events": [
  {
    "id": 4346,
    "manual_id": 11,
    "name_key": "En el momento en que los normalistas intentaban mover la patrulla, los policas que se encontraban en las patrullas del Perifrico dispararon. Segn la declaracin del chofer del autobs Costa Line 2012",
    "description": "En el momento en que los normalistas intentaban mover la patrulla, los policas que se encontraban en las patrullas del Perifrico dispararon. Segn la declaracin del chofer del autobs Costa Line 2012",
    "rain": "NULL",
    "timestamp": "2014-09-26 21:40:00.000000",
    "timestamp_precise": 0,
    "publicly_accessible": 0,
    "location_id": 4346,
    "source_id": 9503,
    "name": "escena del crimen-Juan Alvarez y Perif. Norte (9)",
    "latitude": 18.35745,
    "longitude": -99.53609,
    "extra_detail": "NULL"
  },
  {
    "id": 4346,
    "manual_id": 2195,
    "name_key": "El autobs todo estaba perforado, ya a lo que iba a ser la salida de lo que era el Perifrico nos salen otras patrullas donde nos bloquean, en esta parte (seala), donde nos llegan a bloquear, y en lo cu",
    "description": "El autobs todo estaba perforado, ya a lo que iba a ser la salida de lo que era el Perifrico nos salen otras patrullas donde nos bloquean, en esta parte (seala), donde nos llegan a bloquear, y en lo cual lo que hicimos nosotros bajarnos de las unidades, intentar mover la camioneta, en este caso todos queramos arrempujarla atrs",
    "rain": "NULL",
    "timestamp": "2014-09-26 21:40:00.000000",
    "timestamp_precise": 0,
    "publicly_accessible": 0,
    "location_id": 4346,
    "source_id": 9504,
    "name": "escena del crimen-Juan Alvarez y Perif. Norte (9)",
    "latitude": 18.35745,
    "longitude": -99.53609,
    "extra_detail": "NULL"
  },
  {
    "id": 4346,
    "manual_id": 2187,
    "name_key": "Un grupo de normalistas del primer y segundo autobs se bajaron para mover la patrulla, cosa que no lograron. Sobre el Perifrico haba ms patrullas",
    "description": "Un grupo de normalistas del primer y segundo autobs se bajaron para mover la patrulla, cosa que no lograron. Sobre el Perifrico haba ms patrullas",
    "rain": "NULL",
    "timestamp": "2014-09-26 21:41:00.000000",
    "timestamp_precise": 0,
    "publicly_accessible": 0,
    "location_id": 4346,
    "source_id": 9503,
    "name": "escena del crimen-Juan Alvarez y Perif. Norte (9)",
    "latitude": 18.35745,
    "longitude": -99.53609,
    "extra_detail": "NULL"
  },
  {
    "id": 4346,
    "manual_id": 2196,
    "name_key": "Cuando con un compaero dijimos vamos a checar si tiene la llave. Por suerte tena la llave pegada la camioneta, me subo al volante, intentado hacerla arrancar, pero por los nervios, o por esa misma sit",
    "description": "Cuando con un compaero dijimos vamos a checar si tiene la llave. Por suerte tena la llave pegada la camioneta, me subo al volante, intentado hacerla arrancar, pero por los nervios, o por esa misma situacin del riesgo, no arrancaba, y en eso los compaeros que estaban atrs dijeron ponla en neutral, hay que arrempujarla para que avancen los autobuses.",
    "rain": "NULL",
    "timestamp": "2014-09-26 21:41:00.000000",
    "timestamp_precise": 0,
    "publicly_accessible": 0,
    "location_id": 4346,
    "source_id": 9504,
    "name": "escena del crimen-Juan Alvarez y Perif. Norte (9)",
    "latitude": 18.35745,
    "longitude": -99.53609,
    "extra_detail": "NULL"
  },
  {
    "id": 4346,
    "manual_id": 2197,
    "name_key": "En eso empezamos a escuchar las detonaciones, relato del normalista TC.",
    "description": "En eso empezamos a escuchar las detonaciones, relato del normalista TC.",
    "rain": "NULL",
    "timestamp": "2014-09-26 21:42:00.000000",
    "timestamp_precise": 0,
    "publicly_accessible": 0,
    "location_id": 4346,
    "source_id": 9504,
    "name": "escena del crimen-Juan Alvarez y Perif. Norte (9)",
    "latitude": 18.35745,
    "longitude": -99.53609,
    "extra_detail": "NULL"
  }]
  },
  {
  "location_id": 4347,
  "name": "escena del crimen-Juan Alvarez y Perif. Norte (12)",
  "latitude": 18.35749,
  "longitude": -99.53625,
  "events": [
  {
    "id": 4347,
    "manual_id": 2188,
    "name_key": "Al lugar tambin lleg la unidad 011. En esta unidad, de acuerdo con la Hoja de Servicios Operativos de Vigilancia, iban Luis Francisco Martnez Daz, Ezequiel Nava Germn e Ivn Armando Hurtado Hernndez.",
    "description": "Al lugar tambin lleg la unidad 011. En esta unidad, de acuerdo con la Hoja de Servicios Operativos de Vigilancia, iban Luis Francisco Martnez Daz, Ezequiel Nava Germn e Ivn Armando Hurtado Hernndez.",
    "rain": "NULL",
    "timestamp": "2014-09-26 21:40:00.000000",
    "timestamp_precise": "NULL",
    "publicly_accessible": 0,
    "location_id": 4347,
    "source_id": 9503,
    "name": "escena del crimen-Juan Alvarez y Perif. Norte (12)",
    "latitude": 18.35749,
    "longitude": -99.53625,
    "extra_detail": "NULL"
  },
  {
    "id": 4347,
    "manual_id": 2189,
    "name_key": "De acuerdo con el polica municipal Ivn Armando Hurtado Hernndez, se escucharon detonaciones aunque no indica quin dispar",
    "description": "De acuerdo con el polica municipal Ivn Armando Hurtado Hernndez, se escucharon detonaciones aunque no indica quin dispar",
    "rain": "NULL",
    "timestamp": "2014-09-26 21:40:00.000000",
    "timestamp_precise": 0,
    "publicly_accessible": 0,
    "location_id": 4347,
    "source_id": 9503,
    "name": "escena del crimen-Juan Alvarez y Perif. Norte (12)",
    "latitude": 18.35749,
    "longitude": -99.53625,
    "extra_detail": "NULL"
  }]
  },
  {
  "location_id": 4350,
  "name": "escena del crimen-Juan Alvarez y Perif. Norte (3)",
  "latitude": 18.35726,
  "longitude": -99.5362,
  "events": [
  {
    "id": 4350,
    "manual_id": 2199,
    "name_key": "El Costa Line 2012 tuvo 6 impactos, dos de adelante hacia atrs y el resto de atrs hacia ade- lante, que incidieron en la parte interna del autobs",
    "description": "El Costa Line 2012 tuvo 6 impactos, dos de adelante hacia atrs y el resto de atrs hacia ade- lante, que incidieron en la parte interna del autobs",
    "rain": "NULL",
    "timestamp": "2014-09-26 21:40:00.000000",
    "timestamp_precise": 0,
    "publicly_accessible": 0,
    "location_id": 4350,
    "source_id": 9504,
    "name": "escena del crimen-Juan Alvarez y Perif. Norte (3)",
    "latitude": 18.35726,
    "longitude": -99.5362,
    "extra_detail": "NULL"
  }]
  },
  {
  "location_id": 4351,
  "name": "escena del crimen-Juan Alvarez y Perif. Norte (1)",
  "latitude": 18.35731,
  "longitude": -99.53619,
  "events": [
  {
    "id": 4351,
    "manual_id": 10,
    "name_key": "Mientras escuchaba gritos en la parte de afuera, quienes les decan que no\ndispararan que eran estudiantes y dems palabras obscenas, durando el ataque\ncomo un minuto aproximadamente.",
    "description": "Mientras escuchaba gritos en la parte de afuera, quienes les decan que no\ndispararan que eran estudiantes y dems palabras obscenas, durando el ataque\ncomo un minuto aproximadamente.",
    "rain": "NULL",
    "timestamp": "2014-09-26 21:40:00.000000",
    "timestamp_precise": 0,
    "publicly_accessible": 0,
    "location_id": 4351,
    "source_id": 9505,
    "name": "escena del crimen-Juan Alvarez y Perif. Norte (1)",
    "latitude": 18.35731,
    "longitude": -99.53619,
    "extra_detail": "NULL"
  },
  {
    "id": 4351,
    "manual_id": 2200,
    "name_key": "Despus, en cuanto escuch que ya no haba disparos, lo que hice fue bajarme del autobs para esconderme en la parte de abajo del mismo",
    "description": "Despus, en cuanto escuch que ya no haba disparos, lo que hice fue bajarme del autobs para esconderme en la parte de abajo del mismo",
    "rain": "NULL",
    "timestamp": "2014-09-26 21:41:00.000000",
    "timestamp_precise": 0,
    "publicly_accessible": 0,
    "location_id": 4351,
    "source_id": 9505,
    "name": "escena del crimen-Juan Alvarez y Perif. Norte (1)",
    "latitude": 18.35731,
    "longitude": -99.53619,
    "extra_detail": "NULL"
  },
  {
    "id": 4351,
    "manual_id": 2200,
    "name_key": "de nueva cuenta como al minuto se empezaron a escuchar disparos y gritos por parte de los estudiantes, pero ya en esta ocasin los disparos se escuchaban a lo lejos y algunos se escuchaban como pegaban",
    "description": "de nueva cuenta como al minuto se empezaron a escuchar disparos y gritos por parte de los estudiantes, pero ya en esta ocasin los disparos se escuchaban a lo lejos y algunos se escuchaban como pegaban sobre alguna pared y ya no sobre el autobs",
    "rain": "NULL",
    "timestamp": "2014-09-26 21:42:00.000000",
    "timestamp_precise": 0,
    "publicly_accessible": 0,
    "location_id": 4351,
    "source_id": 9505,
    "name": "escena del crimen-Juan Alvarez y Perif. Norte (1)",
    "latitude": 18.35731,
    "longitude": -99.53619,
    "extra_detail": "NULL"
  },
  {
    "id": 4351,
    "manual_id": 2519,
    "name_key": "Tambin un conductor del autobs Costa Line 2510 fue testigo directo del ataque.  Los choferes de los dos autobuses Costa Line que se encontraban en dicho escenario, perma- necieron en el lugar desde el",
    "description": "Tambin un conductor del autobs Costa Line 2510 fue testigo directo del ataque.  Los choferes de los dos autobuses Costa Line que se encontraban en dicho escenario, perma- necieron en el lugar desde el primer ataque a las 21:45 horas del da 26, hasta las 3:00 horas de la madrugada del da 27.",
    "rain": "NULL",
    "timestamp": "2014-09-26 21:45:00.000000",
    "timestamp_precise": "NULL",
    "publicly_accessible": 0,
    "location_id": 4351,
    "source_id": 9559,
    "name": "escena del crimen-Juan Alvarez y Perif. Norte (1)",
    "latitude": 18.35731,
    "longitude": -99.53619,
    "extra_detail": "NULL"
  },
  {
    "id": 4351,
    "manual_id": 2520,
    "name_key": "Tambin un conductor del autobs Costa Line 2510 fue testigo directo del ataque.  Los choferes de los dos autobuses Costa Line que se encontraban en dicho escenario, perma- necieron en el lugar desde el",
    "description": "Tambin un conductor del autobs Costa Line 2510 fue testigo directo del ataque.  Los choferes de los dos autobuses Costa Line que se encontraban en dicho escenario, perma- necieron en el lugar desde el primer ataque a las 21:45 horas del da 26, hasta las 3:00 horas de la madrugada del da 27.",
    "rain": "NULL",
    "timestamp": "2014-09-27 00:45:00.000000",
    "timestamp_precise": "NULL",
    "publicly_accessible": 0,
    "location_id": 4351,
    "source_id": 9559,
    "name": "escena del crimen-Juan Alvarez y Perif. Norte (1)",
    "latitude": 18.35731,
    "longitude": -99.53619,
    "extra_detail": "NULL"
  },
  {
    "id": 4351,
    "manual_id": 2521,
    "name_key": "Tambin un conductor del autobs Costa Line 2510 fue testigo directo del ataque.  Los choferes de los dos autobuses Costa Line que se encontraban en dicho escenario, perma- necieron en el lugar desde el",
    "description": "Tambin un conductor del autobs Costa Line 2510 fue testigo directo del ataque.  Los choferes de los dos autobuses Costa Line que se encontraban en dicho escenario, perma- necieron en el lugar desde el primer ataque a las 21:45 horas del da 26, hasta las 3:00 horas de la madrugada del da 27.",
    "rain": "NULL",
    "timestamp": "2014-09-27 03:00:00.000000",
    "timestamp_precise": "NULL",
    "publicly_accessible": 0,
    "location_id": 4351,
    "source_id": 9559,
    "name": "escena del crimen-Juan Alvarez y Perif. Norte (1)",
    "latitude": 18.35731,
    "longitude": -99.53619,
    "extra_detail": "NULL"
  }]
  },
  {
  "location_id": 4352,
  "name": "escena del crimen-Juan Alvarez y Perif. Norte (11)",
  "latitude": 18.35767,
  "longitude": -99.5362,
  "events": [
  {
    "id": 4352,
    "manual_id": 2201,
    "name_key": "Una de las patrullas tena el nmero 302 y con letras que decan Polica Municipal, segn\nlos testigos, era una camioneta Ranger que no era habitual de Iguala.",
    "description": "Una de las patrullas tena el nmero 302 y con letras que decan Polica Municipal, segn\nlos testigos, era una camioneta Ranger que no era habitual de Iguala.",
    "rain": "NULL",
    "timestamp": "2014-09-26 21:40:00.000000",
    "timestamp_precise": 0,
    "publicly_accessible": 0,
    "location_id": 4352,
    "source_id": 9505,
    "name": "escena del crimen-Juan Alvarez y Perif. Norte (11)",
    "latitude": 18.35767,
    "longitude": -99.5362,
    "extra_detail": "NULL"
  },
  {
    "id": 4352,
    "manual_id": 2247,
    "name_key": "Cuando llegaron tres patrullas de la polica de Cocula al lugar de los hechos, se bajaron Navas y Aceves. En su declaracin ante la PGR, Ignacio Aceves declar que en ese lugar hablaron con el polica de",
    "description": "Cuando llegaron tres patrullas de la polica de Cocula al lugar de los hechos, se bajaron Navas y Aceves. En su declaracin ante la PGR, Ignacio Aceves declar que en ese lugar hablaron con el polica de Iguala Ral Crespo.",
    "rain": "NULL",
    "timestamp": "2014-09-26 22:25:00.000000",
    "timestamp_precise": 0,
    "publicly_accessible": 0,
    "location_id": 4352,
    "source_id": 9509,
    "name": "escena del crimen-Juan Alvarez y Perif. Norte (11)",
    "latitude": 18.35767,
    "longitude": -99.5362,
    "extra_detail": "NULL"
  },
  {
    "id": 4352,
    "manual_id": 2254,
    "name_key": "Casi todos indican que llegan entre las 22:45 y las 23:00 horas a Juan N. lvarez",
    "description": "Casi todos indican que llegan entre las 22:45 y las 23:00 horas a Juan N. lvarez",
    "rain": "NULL",
    "timestamp": "2014-09-26 22:45:00.000000",
    "timestamp_precise": 0,
    "publicly_accessible": 0,
    "location_id": 4352,
    "source_id": 9511,
    "name": "escena del crimen-Juan Alvarez y Perif. Norte (11)",
    "latitude": 18.35767,
    "longitude": -99.5362,
    "extra_detail": "NULL"
  }]
  },
  {
  "location_id": 4353,
  "name": "escena del crimen-Juan Alvarez y Perif. Norte (23)",
  "latitude": 18.35758,
  "longitude": -99.53614,
  "events": [
  {
    "id": 4353,
    "manual_id": 2202,
    "name_key": "En otros testimonios se indica la existencia de policas municipales llamados los blicos, como unidades con uniformes y armamento especial.",
    "description": "En otros testimonios se indica la existencia de policas municipales llamados los blicos, como unidades con uniformes y armamento especial.",
    "rain": "NULL",
    "timestamp": "2014-09-27 00:30:00.000000",
    "timestamp_precise": 0,
    "publicly_accessible": 0,
    "location_id": 4353,
    "source_id": 9505,
    "name": "escena del crimen-Juan Alvarez y Perif. Norte (23)",
    "latitude": 18.35758,
    "longitude": -99.53614,
    "extra_detail": "NULL"
  },
  {
    "id": 4353,
    "manual_id": 2505,
    "name_key": "Noms alcanc a ver a unos hombres de negro, 2 o 3, pero se me hizo raro porque no traan logotipo de gobierno, yo vi a uno que traa chaleco antibalas, capucha, botas, guantes, playera negra. Otro llevab",
    "description": "Noms alcanc a ver a unos hombres de negro, 2 o 3, pero se me hizo raro porque no traan logotipo de gobierno, yo vi a uno que traa chaleco antibalas, capucha, botas, guantes, playera negra. Otro llevaba sudadera negra, guantes, capucha, chaleco.",
    "rain": "NULL",
    "timestamp": "2014-09-27 00:30:00.000000",
    "timestamp_precise": 0,
    "publicly_accessible": 0,
    "location_id": 4353,
    "source_id": 9557,
    "name": "escena del crimen-Juan Alvarez y Perif. Norte (23)",
    "latitude": 18.35758,
    "longitude": -99.53614,
    "extra_detail": "NULL"
  },
  {
    "id": 4353,
    "manual_id": 9820,
    "name_key": "Me toc ver cmo uno se tira al piso, otro se hinca y otro parado. Cuando empec a escuchar los primeros balazos sal corriendo, relata GA ante el GIEI.",
    "description": "Me toc ver cmo uno se tira al piso, otro se hinca y otro parado. Cuando empec a escuchar los primeros balazos sal corriendo, relata GA ante el GIEI.",
    "rain": "NULL",
    "timestamp": "2014-09-27 00:31:00.000000",
    "timestamp_precise": 0,
    "publicly_accessible": 0,
    "location_id": 4353,
    "source_id": 9557,
    "name": "escena del crimen-Juan Alvarez y Perif. Norte (23)",
    "latitude": 18.35758,
    "longitude": -99.53614,
    "extra_detail": "NULL"
  },
  {
    "id": 4353,
    "manual_id": 2517,
    "name_key": "Alcanc a ver de dnde salan los disparos, la silueta de dos personas.",
    "description": "Alcanc a ver de dnde salan los disparos, la silueta de dos personas.",
    "rain": "NULL",
    "timestamp": "2014-09-27 00:45:00.000000",
    "timestamp_precise": "NULL",
    "publicly_accessible": 0,
    "location_id": 4353,
    "source_id": 9558,
    "name": "escena del crimen-Juan Alvarez y Perif. Norte (23)",
    "latitude": 18.35758,
    "longitude": -99.53614,
    "extra_detail": "NULL"
  }]
  },
  {
  "location_id": 4354,
  "name": "escena del crimen-Juan Alvarez y Perif. Norte (4)",
  "latitude": 18.35721,
  "longitude": -99.5362,
  "events": [
  {
    "id": 4354,
    "manual_id": 2227,
    "name_key": "Muchos de los normalistas que se encontraban en los dos primeros autobuses, los Costa\nLine, se bajaron de los mismos aunque otros quedaron dentro. En los autobuses Costa\nLine 2012 y 2510 iban entre 16",
    "description": "Muchos de los normalistas que se encontraban en los dos primeros autobuses, los Costa\nLine, se bajaron de los mismos aunque otros quedaron dentro. En los autobuses Costa\nLine 2012 y 2510 iban entre 16 y 20 jvenes",
    "rain": "NULL",
    "timestamp": "NULL",
    "timestamp_precise": 0,
    "publicly_accessible": 0,
    "location_id": 4354,
    "source_id": 9508,
    "name": "escena del crimen-Juan Alvarez y Perif. Norte (4)",
    "latitude": 18.35721,
    "longitude": -99.5362,
    "extra_detail": "NULL"
  },
  {
    "id": 4354,
    "manual_id": 2230,
    "name_key": "Vi a varios de segundo y los chavos de primero llorando, mi reaccin no fue\nllorar, al contrario, haca ganas de llorar pero no poda. De ah vi al compa\nChilango, le dije paisa, no se agite, vamos a sali",
    "description": "Vi a varios de segundo y los chavos de primero llorando, mi reaccin no fue\nllorar, al contrario, haca ganas de llorar pero no poda. De ah vi al compa\nChilango, le dije paisa, no se agite, vamos a salir. Estaba parado, recargado en\nel autobs, estaba bien espantado, estaba serio, le dije no hay problema, vamos\na salir. Esa noche le dije que no se agitara, dijo no, no hay problema paisa,\nvenan a mis compaeros. Cuando nos empiezan a balacear otra vez porque nos\nasomamos y yo andaba grabando a los polis y gritndoles. Y cuando empiezan a\ndisparar, todo fue bien apretados ah, sentamos las balas como pasaban cerca.\nNunca he sentido un balazo dicen que se siente caliente, otros dicen que no se\nsiente, testimonio ante el GIEI del normalista G.",
    "rain": "NULL",
    "timestamp": "2014-09-26 21:40:00.000000",
    "timestamp_precise": 0,
    "publicly_accessible": 0,
    "location_id": 4354,
    "source_id": 9508,
    "name": "escena del crimen-Juan Alvarez y Perif. Norte (4)",
    "latitude": 18.35721,
    "longitude": -99.5362,
    "extra_detail": "NULL"
  },
  {
    "id": 4354,
    "manual_id": 2230,
    "name_key": "Segn varios normalistas, llegaron 3 patrullas, se vean como federales pero no eran\nfederales: varios dijeron que eran federales y yo les dije que no. Un federal se distingue\na un municipal a un estata",
    "description": "Segn varios normalistas, llegaron 3 patrullas, se vean como federales pero no eran\nfederales: varios dijeron que eran federales y yo les dije que no. Un federal se distingue\na un municipal a un estatal. Las de Iguala eran Ranger doble cabina y esas eran como\nRam doble cabina y los federales traen Ford doble cabina, esas eran Ram municipal.",
    "rain": "NULL",
    "timestamp": "2014-09-26 21:41:00.000000",
    "timestamp_precise": 0,
    "publicly_accessible": 0,
    "location_id": 4354,
    "source_id": 9508,
    "name": "escena del crimen-Juan Alvarez y Perif. Norte (4)",
    "latitude": 18.35721,
    "longitude": -99.5362,
    "extra_detail": "NULL"
  },
  {
    "id": 4354,
    "manual_id": 2218,
    "name_key": "Vi que mi compaero Aldo Gutirrez estaba en el suelo y no se mova, as que yo marqu al 066, pero no me crean",
    "description": "Vi que mi compaero Aldo Gutirrez estaba en el suelo y no se mova, as que yo marqu al 066, pero no me crean",
    "rain": "NULL",
    "timestamp": "2014-09-26 21:48:00.000000",
    "timestamp_precise": 0,
    "publicly_accessible": 0,
    "location_id": 4354,
    "source_id": 9506,
    "name": "escena del crimen-Juan Alvarez y Perif. Norte (4)",
    "latitude": 18.35721,
    "longitude": -99.5362,
    "extra_detail": "NULL"
  },
  {
    "id": 4354,
    "manual_id": 2220,
    "name_key": "a otro normalista que llam al mismo telfono le respondieron diciendo que la polica no haba dejado pasar la ambulancia y se haba regresado. Cerca de media hora despus de las llamadas, una ambulancia de",
    "description": "a otro normalista que llam al mismo telfono le respondieron diciendo que la polica no haba dejado pasar la ambulancia y se haba regresado. Cerca de media hora despus de las llamadas, una ambulancia de la universidad evacu al herido.",
    "rain": "NULL",
    "timestamp": "2014-09-26 21:49:00.000000",
    "timestamp_precise": 0,
    "publicly_accessible": 0,
    "location_id": 4354,
    "source_id": 9506,
    "name": "escena del crimen-Juan Alvarez y Perif. Norte (4)",
    "latitude": 18.35721,
    "longitude": -99.5362,
    "extra_detail": "NULL"
  },
  {
    "id": 4354,
    "manual_id": 2233,
    "name_key": "Cuando le dieron el balazo yo marqu al 066. Oye, necesitamos una ambulancia\nen Iguala, en Bodega Aurrer, por Juan N. lvarez, cerca del cuartel de los\nmilitares. Me dice la operadora seguramente est ju",
    "description": "Cuando le dieron el balazo yo marqu al 066. Oye, necesitamos una ambulancia\nen Iguala, en Bodega Aurrer, por Juan N. lvarez, cerca del cuartel de los\nmilitares. Me dice la operadora seguramente est jugando, cmo cree?, no,\nseorita, acaban de balacear a mi compaero. No le creemos, se escucha que\nestn en una fiesta, pero se escuchaban los balazos. Y me colg.",
    "rain": "NULL",
    "timestamp": "2014-09-26 21:50:00.000000",
    "timestamp_precise": 0,
    "publicly_accessible": 0,
    "location_id": 4354,
    "source_id": 9509,
    "name": "escena del crimen-Juan Alvarez y Perif. Norte (4)",
    "latitude": 18.35721,
    "longitude": -99.5362,
    "extra_detail": "NULL"
  },
  {
    "id": 4354,
    "manual_id": 2234,
    "name_key": "Le marqu a mi prima, una de Iguala, oye nos balacearon en Iguala, aydame, mndame a la ambulancia, dice en su testimonio ante el GIEI el normalista G.",
    "description": "Le marqu a mi prima, una de Iguala, oye nos balacearon en Iguala, aydame, mndame a la ambulancia, dice en su testimonio ante el GIEI el normalista G.",
    "rain": "NULL",
    "timestamp": "2014-09-26 21:51:00.000000",
    "timestamp_precise": 0,
    "publicly_accessible": 0,
    "location_id": 4354,
    "source_id": 9509,
    "name": "escena del crimen-Juan Alvarez y Perif. Norte (4)",
    "latitude": 18.35721,
    "longitude": -99.5362,
    "extra_detail": "NULL"
  },
  {
    "id": 4354,
    "manual_id": 2409,
    "name_key": "Entonces llam a A y me dijo: regrsate y aydame, estn disparando",
    "description": "Entonces llam a A y me dijo: regrsate y aydame, estn disparando",
    "rain": "NULL",
    "timestamp": "2014-09-26 22:02:00.000000",
    "timestamp_precise": 0,
    "publicly_accessible": 0,
    "location_id": 4354,
    "source_id": 9539,
    "name": "escena del crimen-Juan Alvarez y Perif. Norte (4)",
    "latitude": 18.35721,
    "longitude": -99.5362,
    "extra_detail": "NULL"
  },
  {
    "id": 4354,
    "manual_id": 2239,
    "name_key": "Los normalistas llamaron a la Cruz Roja a las 22:19 horas",
    "description": "Los normalistas llamaron a la Cruz Roja a las 22:19 horas",
    "rain": "NULL",
    "timestamp": "2014-09-26 22:19:00.000000",
    "timestamp_precise": 1,
    "publicly_accessible": 0,
    "location_id": 4354,
    "source_id": 9509,
    "name": "escena del crimen-Juan Alvarez y Perif. Norte (4)",
    "latitude": 18.35721,
    "longitude": -99.5362,
    "extra_detail": "NULL"
  },
  {
    "id": 4354,
    "manual_id": 2266,
    "name_key": "El resto de los normalistas, que intentaban protegerse de los disparos en el espacio que\nhaba entre los dos primeros autobuses, fueron testigos de cmo bajaban a sus compaeros del autobs Estrella de Or",
    "description": "El resto de los normalistas, que intentaban protegerse de los disparos en el espacio que\nhaba entre los dos primeros autobuses, fueron testigos de cmo bajaban a sus compaeros del autobs Estrella de Oro y cmo eran tumbados en el suelo. Estaban a punto de entregarse a la polica tambin.",
    "rain": "NULL",
    "timestamp": "2014-09-26 22:38:00.000000",
    "timestamp_precise": 0,
    "publicly_accessible": 0,
    "location_id": 4354,
    "source_id": 9513,
    "name": "escena del crimen-Juan Alvarez y Perif. Norte (4)",
    "latitude": 18.35721,
    "longitude": -99.5362,
    "extra_detail": "NULL"
  },
  {
    "id": 4354,
    "manual_id": 2237,
    "name_key": "Otro de los muchachos que estaba en ese grupo y vena en el Costa Line 2012, tuvo en\nese momento una crisis asmatica que le dificultaba la respiracin.",
    "description": "Otro de los muchachos que estaba en ese grupo y vena en el Costa Line 2012, tuvo en\nese momento una crisis asmatica que le dificultaba la respiracin.",
    "rain": "NULL",
    "timestamp": "2014-09-26 22:39:00.000000",
    "timestamp_precise": 1,
    "publicly_accessible": 0,
    "location_id": 4354,
    "source_id": 9509,
    "name": "escena del crimen-Juan Alvarez y Perif. Norte (4)",
    "latitude": 18.35721,
    "longitude": -99.5362,
    "extra_detail": "NULL"
  },
  {
    "id": 4354,
    "manual_id": 2319,
    "name_key": "Despus, los que estaban uniformados diferente les gritaron sbanse\nal autobs.",
    "description": "Despus, los que estaban uniformados diferente les gritaron sbanse\nal autobs.",
    "rain": "NULL",
    "timestamp": "2014-09-26 22:50:00.000000",
    "timestamp_precise": 0,
    "publicly_accessible": 0,
    "location_id": 4354,
    "source_id": 9523,
    "name": "escena del crimen-Juan Alvarez y Perif. Norte (4)",
    "latitude": 18.35721,
    "longitude": -99.5362,
    "extra_detail": "NULL"
  }]
  },
  {
  "location_id": 4356,
  "name": "escena del crimen-Juan Alvarez y Perif. Norte (15)",
  "latitude": 18.35739,
  "longitude": -99.53621,
  "events": [
  {
    "id": 4356,
    "manual_id": 2248,
    "name_key": "En ese momento, los normalistas gritaban que haba un compaero que necesitaba ayuda y que no estaban armados. Nava y Aceves negociaron con uno de los normalistas encontrarse a mitad del camino para tra",
    "description": "En ese momento, los normalistas gritaban que haba un compaero que necesitaba ayuda y que no estaban armados. Nava y Aceves negociaron con uno de los normalistas encontrarse a mitad del camino para trasladar al muchacho con problemas respiratorios. En entrevista con el GIEI en el CEFERESO Altiplano, Nava afirm que: la polica de Iguala nos dijo que no iban a ayudarlo ya que era una emboscada.",
    "rain": "NULL",
    "timestamp": "2014-09-26 22:26:00.000000",
    "timestamp_precise": 0,
    "publicly_accessible": 0,
    "location_id": 4356,
    "source_id": 9510,
    "name": "escena del crimen-Juan Alvarez y Perif. Norte (15)",
    "latitude": 18.35739,
    "longitude": -99.53621,
    "extra_detail": "NULL"
  },
  {
    "id": 4356,
    "manual_id": 2248,
    "name_key": "La ambulancia qued en una calle cercana, a donde fue trasladado el enfermo por los propios policas que participaban en el operativo en la patrulla 302, despus de haber negociado con los normalistas qu",
    "description": "La ambulancia qued en una calle cercana, a donde fue trasladado el enfermo por los propios policas que participaban en el operativo en la patrulla 302, despus de haber negociado con los normalistas que lo dejaran en un punto intermedio para su evacuacin. *De acuerdo con ANCA, l, G y otro compaero lo dejaron a medio camino para que se lo llevara la policia.",
    "rain": "NULL",
    "timestamp": "2014-09-26 22:27:00.000000",
    "timestamp_precise": 0,
    "publicly_accessible": 0,
    "location_id": 4356,
    "source_id": 9511,
    "name": "escena del crimen-Juan Alvarez y Perif. Norte (15)",
    "latitude": 18.35739,
    "longitude": -99.53621,
    "extra_detail": "NULL"
  },
  {
    "id": 4356,
    "manual_id": 2247,
    "name_key": "La ambulancia qued en una calle cercana, a donde fue trasladado el enfermo por los propios policas que participaban en el operativo en la patrulla 302, despus de haber negociado con los normalistas qu",
    "description": "La ambulancia qued en una calle cercana, a donde fue trasladado el enfermo por los propios policas que participaban en el operativo en la patrulla 302, despus de haber negociado con los normalistas que lo dejaran en un punto intermedio para su evacuacin. Dicha patrulla era diferente a las de polica municipal de Iguala: tena un escudo en la puerta y el polica que se acerc llevaba una placa estrellada en el pecho, era polica de Cocula. De ah, los policas lo trasladaron en la patrulla hasta una ambulancia que se encontraba en las inmediaciones en la que fue trasladado al hospital.",
    "rain": "NULL",
    "timestamp": "2014-09-26 22:37:00.000000",
    "timestamp_precise": "NULL",
    "publicly_accessible": 0,
    "location_id": 4356,
    "source_id": 9510,
    "name": "escena del crimen-Juan Alvarez y Perif. Norte (15)",
    "latitude": 18.35739,
    "longitude": -99.53621,
    "extra_detail": "NULL"
  },
  {
    "id": 4356,
    "manual_id": 2272,
    "name_key": "No, pues qu quieren negociar? Si quieren negociar, sus armas primeramente\nque no estn apuntando a nosotros, vimos que tena una pistola ac atrs, estaba\nlisto para sacarla a disparar. Cuando vimos que s",
    "description": "No, pues qu quieren negociar? Si quieren negociar, sus armas primeramente\nque no estn apuntando a nosotros, vimos que tena una pistola ac atrs, estaba\nlisto para sacarla a disparar. Cuando vimos que se la entreg a su compaero, le\ndijimos qutese la capucha, se quit el casco. Dijo a ver chavos, se van a entregar,\nnos vamos a llevar todos los autobuses, vamos a hacer de cuenta que no pas\nnada. Le dijimos, no, nuestros compaeros ya vienen en camino. Mira, como no\nse quieren entregar, les vamos a decir una cosa, se van a arrepentir el resto de\nsu vida por haber entrado a Iguala. Ms tarde venimos por ustedes. Era claro\nel mensaje que nos haban dicho. Ah se van todos, cuenta el normalista G en\ntestimonio ante el GIEI.",
    "rain": "NULL",
    "timestamp": "2014-09-26 22:50:00.000000",
    "timestamp_precise": 0,
    "publicly_accessible": 0,
    "location_id": 4356,
    "source_id": 9514,
    "name": "escena del crimen-Juan Alvarez y Perif. Norte (15)",
    "latitude": 18.35739,
    "longitude": -99.53621,
    "extra_detail": "NULL"
  }]
  },
  {
  "location_id": 4357,
  "name": "escena del crimen-Juan Alvarez y Perif. Norte (13)",
  "latitude": 18.35693,
  "longitude": -99.53629,
  "events": [
  {
    "id": 4357,
    "manual_id": 2257,
    "name_key": "En la parte de atrs de la comitiva, los normalistas que iban en el tercer autobs, el Estrella de Oro 1568, sufrieron otro ataque, pues su autobs estaba rodeado de numerosos policias",
    "description": "En la parte de atrs de la comitiva, los normalistas que iban en el tercer autobs, el Estrella de Oro 1568, sufrieron otro ataque, pues su autobs estaba rodeado de numerosos policias",
    "rain": "NULL",
    "timestamp": "2014-09-26 22:30:00.000000",
    "timestamp_precise": 0,
    "publicly_accessible": 0,
    "location_id": 4357,
    "source_id": 9511,
    "name": "escena del crimen-Juan Alvarez y Perif. Norte (13)",
    "latitude": 18.35693,
    "longitude": -99.53629,
    "extra_detail": "NULL"
  }]
  },
  {
  "location_id": 4358,
  "name": "escena del crimen-Juan Alvarez y Perif. Norte (5)",
  "latitude": 18.35703,
  "longitude": -99.53624,
  "events": [
  {
    "id": 4358,
    "manual_id": 2260,
    "name_key": "Uno de los normalistas, que result finalmente herido, se haba bajado de ese\ntercer autobs con un extinguidor para enfrentarse a la polica y tratar de evitar los\ndisparos. En la tercera ocasin que se b",
    "description": "Uno de los normalistas, que result finalmente herido, se haba bajado de ese\ntercer autobs con un extinguidor para enfrentarse a la polica y tratar de evitar los\ndisparos. En la tercera ocasin que se baj y mientras trataba de cubrirse en la parte\nanterior del autobs, fue alcanzado en el brazo por un disparo, por lo que se refugi de\nnuevo en el autobs y dej abundante sangre en el mismo.",
    "rain": "NULL",
    "timestamp": "2014-09-26 22:30:00.000000",
    "timestamp_precise": 0,
    "publicly_accessible": 0,
    "location_id": 4358,
    "source_id": 9512,
    "name": "escena del crimen-Juan Alvarez y Perif. Norte (5)",
    "latitude": 18.35703,
    "longitude": -99.53624,
    "extra_detail": "NULL"
  },
  {
    "id": 4358,
    "manual_id": 2261,
    "name_key": "Hicimos un acuerdo con el Cochiloco, que tena que bajar uno de nosotros para\ntirar el extinguidor que tena el autobs a un lado del chofer, para quitrnoslos,\nporque si dejbamos que llegaran ms era prob",
    "description": "Hicimos un acuerdo con el Cochiloco, que tena que bajar uno de nosotros para\ntirar el extinguidor que tena el autobs a un lado del chofer, para quitrnoslos,\nporque si dejbamos que llegaran ms era probable que nos mataran arriba.\nMe baj como 3 veces. En la primera que baj les ech el gas y no me haban\ndisparado. Me dispararon las dos veces pero no me dieron. No dejamos que se nos\nacercaran los policas porque nos iban a golpear y a matar porque ellos tiraban\na matarnos. Me baj, me qued enfrente del chofer, fue cuando al sacar mi mano\nme dispararon en esta parte de aqu. Haba un lugarcito donde ellos se podan\nesconder en un rbol, dice FM en testimonio con el GIEI.",
    "rain": "NULL",
    "timestamp": "2014-09-26 22:30:00.000000",
    "timestamp_precise": 0,
    "publicly_accessible": 0,
    "location_id": 4358,
    "source_id": 9512,
    "name": "escena del crimen-Juan Alvarez y Perif. Norte (5)",
    "latitude": 18.35703,
    "longitude": -99.53624,
    "extra_detail": "NULL"
  },
  {
    "id": 4358,
    "manual_id": 2387,
    "name_key": "Los dos conductores de los autobuses Estrella de Oro fueron golpeados y detenidos, antes de ser liberados esa misma noche. En la detencin de ambos, los testigos sealan la participacin de policas munic",
    "description": "Los dos conductores de los autobuses Estrella de Oro fueron golpeados y detenidos, antes de ser liberados esa misma noche. En la detencin de ambos, los testigos sealan la participacin de policas municipales y tambin alguna patrulla estatal.",
    "rain": "NULL",
    "timestamp": "2014-09-26 22:30:00.000000",
    "timestamp_precise": "NULL",
    "publicly_accessible": 0,
    "location_id": 4358,
    "source_id": 9535,
    "name": "escena del crimen-Juan Alvarez y Perif. Norte (5)",
    "latitude": 18.35703,
    "longitude": -99.53624,
    "extra_detail": "NULL"
  },
  {
    "id": 4358,
    "manual_id": 2388,
    "name_key": "El conductor del autobs 1568, que se encontraba en el escenario de los tres autobuses en la calle Juan N. lvarez, se baj en el momento en que uno de los estudiantes haba sido herido: en ese momento me",
    "description": "El conductor del autobs 1568, que se encontraba en el escenario de los tres autobuses en la calle Juan N. lvarez, se baj en el momento en que uno de los estudiantes haba sido herido: en ese momento me puse nervioso, ya que el piso se llen de sangre y opt por bajarme del autobs y me baj con las manos arriba. Tambin seala que les grit que no dispararan que era el conductor y, ya estando cerca, los policas me golpearon y les dije que era el chofer",
    "rain": "NULL",
    "timestamp": "2014-09-26 22:30:00.000000",
    "timestamp_precise": 0,
    "publicly_accessible": 0,
    "location_id": 4358,
    "source_id": 9535,
    "name": "escena del crimen-Juan Alvarez y Perif. Norte (5)",
    "latitude": 18.35703,
    "longitude": -99.53624,
    "extra_detail": "NULL"
  },
  {
    "id": 4358,
    "manual_id": 2262,
    "name_key": "Segn su relato, otro de los normalistas de ese autobs qued herido en la espalda y\nes uno de los desaparecidos",
    "description": "Segn su relato, otro de los normalistas de ese autobs qued herido en la espalda y\nes uno de los desaparecidos",
    "rain": "NULL",
    "timestamp": "2014-09-26 22:31:00.000000",
    "timestamp_precise": 0,
    "publicly_accessible": 0,
    "location_id": 4358,
    "source_id": 9512,
    "name": "escena del crimen-Juan Alvarez y Perif. Norte (5)",
    "latitude": 18.35703,
    "longitude": -99.53624,
    "extra_detail": "NULL"
  },
  {
    "id": 4358,
    "manual_id": 9812,
    "name_key": "Nosotros pensamos que al bajarse l, como era conductor del autobs, lo iban a recibir bien, pero fue lo contrario, lo bajaron y lo golpearon. l abre la puerta del autobs, dijo que era el conductor, que",
    "description": "Nosotros pensamos que al bajarse l, como era conductor del autobs, lo iban a recibir bien, pero fue lo contrario, lo bajaron y lo golpearon. l abre la puerta del autobs, dijo que era el conductor, que nosotros nos bamos a entregar, dice FM en testimonio con el GIEI.",
    "rain": "NULL",
    "timestamp": "2014-09-26 22:36:00.000000",
    "timestamp_precise": 0,
    "publicly_accessible": 0,
    "location_id": 4358,
    "source_id": 9512,
    "name": "escena del crimen-Juan Alvarez y Perif. Norte (5)",
    "latitude": 18.35703,
    "longitude": -99.53624,
    "extra_detail": "NULL"
  },
  {
    "id": 4358,
    "manual_id": 2265,
    "name_key": "En su declaracin ante la PGR del 21 de octubre de 2014, FTCL relata: Un polica municipal se subi al camin Estrella de Oro en el que venan aproximadamente 17 de mis compaeros, de los cuales slo recuerd",
    "description": "En su declaracin ante la PGR del 21 de octubre de 2014, FTCL relata: Un polica municipal se subi al camin Estrella de Oro en el que venan aproximadamente 17 de mis compaeros, de los cuales slo recuerdo a los hermanos Dorian, Jorge Luis Gonzlez Parral, Bernardo Flores Alcaraz, Miguel ngel Hernndez Martnez y Marco Antonio Gmez Molina y los comienzan a bajar uno a uno con las manos en la nube.",
    "rain": "NULL",
    "timestamp": "2014-09-26 22:38:00.000000",
    "timestamp_precise": 0,
    "publicly_accessible": 0,
    "location_id": 4358,
    "source_id": 9512,
    "name": "escena del crimen-Juan Alvarez y Perif. Norte (5)",
    "latitude": 18.35703,
    "longitude": -99.53624,
    "extra_detail": "NULL"
  },
  {
    "id": 4358,
    "manual_id": 2267,
    "name_key": "Yo recuerdo que cuando vi que estaban golpeando al Knder, M dijo, hay que entregarnos. Estaba tirado el Knder, eso no me gust. Le dije sale, me voy a entregar.",
    "description": "Yo recuerdo que cuando vi que estaban golpeando al Knder, M dijo, hay que entregarnos. Estaba tirado el Knder, eso no me gust. Le dije sale, me voy a entregar.",
    "rain": "NULL",
    "timestamp": "2014-09-26 22:38:00.000000",
    "timestamp_precise": 0,
    "publicly_accessible": 0,
    "location_id": 4358,
    "source_id": 9513,
    "name": "escena del crimen-Juan Alvarez y Perif. Norte (5)",
    "latitude": 18.35703,
    "longitude": -99.53624,
    "extra_detail": "NULL"
  },
  {
    "id": 4358,
    "manual_id": 2268,
    "name_key": "Dije hey, jefe, nos vamos a entregar. Dice vengan, pues, cabrones. Pero no ande apuntando. Ya iba yo saliendo as cuando me agarra el brazo A llorando, no gey, t no te vas a entregar. No te entregues,",
    "description": "Dije hey, jefe, nos vamos a entregar. Dice vengan, pues, cabrones. Pero no ande apuntando. Ya iba yo saliendo as cuando me agarra el brazo A llorando, no gey, t no te vas a entregar. No te entregues, varios dijeron que no, dice en testimonio ante el GIEI el normalista G.",
    "rain": "NULL",
    "timestamp": "2014-09-26 22:39:00.000000",
    "timestamp_precise": 0,
    "publicly_accessible": 0,
    "location_id": 4358,
    "source_id": 9513,
    "name": "escena del crimen-Juan Alvarez y Perif. Norte (5)",
    "latitude": 18.35703,
    "longitude": -99.53624,
    "extra_detail": "NULL"
  },
  {
    "id": 4358,
    "manual_id": 2320,
    "name_key": "El conductor del autobs 1568 confirm que la polica tena detenidos a los normalistas\nmientras l mismo era subido a una patrulla: ya estando en la patrulla observ que\nlos policas tenan amarrados y tirad",
    "description": "El conductor del autobs 1568 confirm que la polica tena detenidos a los normalistas\nmientras l mismo era subido a una patrulla: ya estando en la patrulla observ que\nlos policas tenan amarrados y tirados en el piso a unos estudiantes y los estaban\ncontando del uno al cuatro, siendo aproximadamente un total de 20 estudiantes",
    "rain": "NULL",
    "timestamp": "2014-09-26 22:50:00.000000",
    "timestamp_precise": 0,
    "publicly_accessible": 0,
    "location_id": 4358,
    "source_id": 9523,
    "name": "escena del crimen-Juan Alvarez y Perif. Norte (5)",
    "latitude": 18.35703,
    "longitude": -99.53624,
    "extra_detail": "NULL"
  },
  {
    "id": 4358,
    "manual_id": 2421,
    "name_key": "En la parte delantera del autobs haba mucha sangre y en el suelo se encontraba un documento de Bernardo Flores, uno de los normalistas que iba en dicho autobs hasta ser detenido y desaparecido.",
    "description": "En la parte delantera del autobs haba mucha sangre y en el suelo se encontraba un documento de Bernardo Flores, uno de los normalistas que iba en dicho autobs hasta ser detenido y desaparecido.",
    "rain": "NULL",
    "timestamp": "2014-09-26 23:32:00.000000",
    "timestamp_precise": "NULL",
    "publicly_accessible": 0,
    "location_id": 4358,
    "source_id": 9543,
    "name": "escena del crimen-Juan Alvarez y Perif. Norte (5)",
    "latitude": 18.35703,
    "longitude": -99.53624,
    "extra_detail": "NULL"
  }]
  },
  {
  "location_id": 4359,
  "name": "escena del crimen-Juan Alvarez y Perif. Norte (14)",
  "latitude": 18.35706,
  "longitude": -99.53631,
  "events": [
  {
    "id": 4359,
    "manual_id": 2265,
    "name_key": "El herido llevado al hospital es el nico sobreviviente conocido del autobs Estrella de Oro 1568. En dicho autobs se encontraban dos jvenes de segundo ao. Uno de ellos el herido en el brazo y el otro,",
    "description": "El herido llevado al hospital es el nico sobreviviente conocido del autobs Estrella de Oro 1568. En dicho autobs se encontraban dos jvenes de segundo ao. Uno de ellos el herido en el brazo y el otro, Bernardo Flores, apodado Cochiloco.",
    "rain": "NULL",
    "timestamp": "NULL",
    "timestamp_precise": "NULL",
    "publicly_accessible": 0,
    "location_id": 4359,
    "source_id": 9513,
    "name": "escena del crimen-Juan Alvarez y Perif. Norte (14)",
    "latitude": 18.35706,
    "longitude": -99.53631,
    "extra_detail": "NULL"
  },
  {
    "id": 4359,
    "manual_id": 2263,
    "name_key": "Los jvenes fueron bajados del autobs con las manos en alto, siendo reducidos por la polica y quedando tumbados en el suelo en fila, uno al lado del otro, mientras les apuntaban con armas de fuego.",
    "description": "Los jvenes fueron bajados del autobs con las manos en alto, siendo reducidos por la polica y quedando tumbados en el suelo en fila, uno al lado del otro, mientras les apuntaban con armas de fuego.",
    "rain": "NULL",
    "timestamp": "2014-09-26 22:36:00.000000",
    "timestamp_precise": 0,
    "publicly_accessible": 0,
    "location_id": 4359,
    "source_id": 9512,
    "name": "escena del crimen-Juan Alvarez y Perif. Norte (14)",
    "latitude": 18.35706,
    "longitude": -99.53631,
    "extra_detail": "NULL"
  },
  {
    "id": 4359,
    "manual_id": 2264,
    "name_key": "Mientras eran bajados, el normalista que se encontraba herido de gravedad en el brazo\nfue tumbado en el suelo con el resto de sus compaeros. Posteriormente, cuando lleg\nla ambulancia, fue llevado al h",
    "description": "Mientras eran bajados, el normalista que se encontraba herido de gravedad en el brazo\nfue tumbado en el suelo con el resto de sus compaeros. Posteriormente, cuando lleg\nla ambulancia, fue llevado al hospital",
    "rain": "NULL",
    "timestamp": "2014-09-26 22:37:00.000000",
    "timestamp_precise": 0,
    "publicly_accessible": 0,
    "location_id": 4359,
    "source_id": 9512,
    "name": "escena del crimen-Juan Alvarez y Perif. Norte (14)",
    "latitude": 18.35706,
    "longitude": -99.53631,
    "extra_detail": "NULL"
  },
  {
    "id": 4359,
    "manual_id": 2277,
    "name_key": "Mientras, el grupo de normalistas que haba sido bajado del autobs Estrella de Oro 1568\nen la parte de atrs de la comitiva era detenido y llevado en 6-7 patrullas de la polica de\nIguala. Eran aproximad",
    "description": "Mientras, el grupo de normalistas que haba sido bajado del autobs Estrella de Oro 1568\nen la parte de atrs de la comitiva era detenido y llevado en 6-7 patrullas de la polica de\nIguala. Eran aproximadamente las 22:50 horas.",
    "rain": "NULL",
    "timestamp": "2014-09-26 22:50:00.000000",
    "timestamp_precise": 1,
    "publicly_accessible": 0,
    "location_id": 4359,
    "source_id": 9514,
    "name": "escena del crimen-Juan Alvarez y Perif. Norte (14)",
    "latitude": 18.35706,
    "longitude": -99.53631,
    "extra_detail": "NULL"
  },
  {
    "id": 4359,
    "manual_id": 2321,
    "name_key": "Cuando me pona de lado fue cuando me golpearon. Les dije que si fueran sus\nhijos a ellos les iba a gustar que as los tuvieron y me golpearon aqu las costillas.\nMe golpearon unas cuatro veces con la cu",
    "description": "Cuando me pona de lado fue cuando me golpearon. Les dije que si fueran sus\nhijos a ellos les iba a gustar que as los tuvieron y me golpearon aqu las costillas.\nMe golpearon unas cuatro veces con la culata y fue cuando un polica le dijo al\notro mtalo, para qu lo vas a dejar herido, de una vez mtalo. Fue cuando me\npusieron el R15 en la cabeza. Otro polica lleg y le dice No, no lo mates, ya viene la ambulancia por l, se lo va a llevar.",
    "rain": "NULL",
    "timestamp": "2014-09-26 22:50:00.000000",
    "timestamp_precise": 0,
    "publicly_accessible": 0,
    "location_id": 4359,
    "source_id": 9524,
    "name": "escena del crimen-Juan Alvarez y Perif. Norte (14)",
    "latitude": 18.35706,
    "longitude": -99.53631,
    "extra_detail": "NULL"
  },
  {
    "id": 4359,
    "manual_id": 2322,
    "name_key": "Al lado de m estaba el Botas y estaba llorando, le dije que se aguantara, que mis camaradas iban a llegar a rescatarnos,\na apoyarnos. En ningn momento imaginamos que se los iban a llevar, cuenta el es",
    "description": "Al lado de m estaba el Botas y estaba llorando, le dije que se aguantara, que mis camaradas iban a llegar a rescatarnos,\na apoyarnos. En ningn momento imaginamos que se los iban a llevar, cuenta el estudiante FM ante el GIEI.",
    "rain": "NULL",
    "timestamp": "2014-09-26 22:50:00.000000",
    "timestamp_precise": 0,
    "publicly_accessible": 0,
    "location_id": 4359,
    "source_id": 9525,
    "name": "escena del crimen-Juan Alvarez y Perif. Norte (14)",
    "latitude": 18.35706,
    "longitude": -99.53631,
    "extra_detail": "NULL"
  },
  {
    "id": 4359,
    "manual_id": 9813,
    "name_key": "mientras los dems normalistas seguan tendidos en el piso, antes de ser subidos en unas 6-7 patrullas de la polica municipal de Iguala que se encontraban atrs de los tres autobuses119.",
    "description": "mientras los dems normalistas seguan tendidos en el piso, antes de ser subidos en unas 6-7 patrullas de la polica municipal de Iguala que se encontraban atrs de los tres autobuses119.",
    "rain": "NULL",
    "timestamp": "2014-09-26 22:50:00.000000",
    "timestamp_precise": 0,
    "publicly_accessible": 0,
    "location_id": 4359,
    "source_id": 9512,
    "name": "escena del crimen-Juan Alvarez y Perif. Norte (14)",
    "latitude": 18.35706,
    "longitude": -99.53631,
    "extra_detail": "NULL"
  }]
  },
  {
  "location_id": 4385,
  "name": "escena del crimen-Juan Alvarez y Perif. Norte (20)",
  "latitude": 18.35738,
  "longitude": -99.53592,
  "events": [
  {
    "id": 4385,
    "manual_id": 2421,
    "name_key": "Al poco tiempo llegaron dos Urban desde Ayotzinapa. Casi todos los normalistas eran de tercer ao.",
    "description": "Al poco tiempo llegaron dos Urban desde Ayotzinapa. Casi todos los normalistas eran de tercer ao.",
    "rain": "NULL",
    "timestamp": "2014-09-26 23:30:00.000000",
    "timestamp_precise": "NULL",
    "publicly_accessible": 0,
    "location_id": 4385,
    "source_id": 9542,
    "name": "escena del crimen-Juan Alvarez y Perif. Norte (20)",
    "latitude": 18.35738,
    "longitude": -99.53592,
    "extra_detail": "NULL"
  },
  {
    "id": 4385,
    "manual_id": 2484,
    "name_key": "Cuando lleg al lugar vio una Urban blanca se identific como ex estudiante y pens que estaba seguro porque haba periodistas y compaeros",
    "description": "Cuando lleg al lugar vio una Urban blanca se identific como ex estudiante y pens que estaba seguro porque haba periodistas y compaeros",
    "rain": "NULL",
    "timestamp": "2014-09-26 23:30:00.000000",
    "timestamp_precise": "NULL",
    "publicly_accessible": 0,
    "location_id": 4385,
    "source_id": 9553,
    "name": "escena del crimen-Juan Alvarez y Perif. Norte (20)",
    "latitude": 18.35738,
    "longitude": -99.53592,
    "extra_detail": "NULL"
  },
  {
    "id": 4385,
    "manual_id": 2490,
    "name_key": "A la escena llegaron dos vehculos tipo Urban con normalistas de Ayotzinapa que haban sido avisados por sus compaeros del ataque que estaban sufriendo",
    "description": "A la escena llegaron dos vehculos tipo Urban con normalistas de Ayotzinapa que haban sido avisados por sus compaeros del ataque que estaban sufriendo",
    "rain": "NULL",
    "timestamp": "2014-09-26 23:30:00.000000",
    "timestamp_precise": "NULL",
    "publicly_accessible": 0,
    "location_id": 4385,
    "source_id": 9554,
    "name": "escena del crimen-Juan Alvarez y Perif. Norte (20)",
    "latitude": 18.35738,
    "longitude": -99.53592,
    "extra_detail": "NULL"
  },
  {
    "id": 4385,
    "manual_id": 9824,
    "name_key": "Con objeto de realizar algunas curaciones a los normalistas heridos como consecuencia del primer ataque, la maestra se subi a una camioneta Urban en la cual haban llegado ms normalistas para dar apoyo",
    "description": "Con objeto de realizar algunas curaciones a los normalistas heridos como consecuencia del primer ataque, la maestra se subi a una camioneta Urban en la cual haban llegado ms normalistas para dar apoyo a sus compaeros. Mientras brindaba estos primeros auxilios, escuch rfagas de disparos y se tir al suelo en la camioneta junto con el normalista que atenda en ese momento.",
    "rain": "NULL",
    "timestamp": "2014-09-27 00:45:00.000000",
    "timestamp_precise": "NULL",
    "publicly_accessible": 0,
    "location_id": 4385,
    "source_id": 9561,
    "name": "escena del crimen-Juan Alvarez y Perif. Norte (20)",
    "latitude": 18.35738,
    "longitude": -99.53592,
    "extra_detail": "NULL"
  }]
  },
  {
  "location_id": 4404,
  "name": "escena del crimen-Juan Alvarez y Perif. Norte (18)",
  "latitude": 18.35761,
  "longitude": -99.53596,
  "events": [
  {
    "id": 4404,
    "manual_id": 2489,
    "name_key": "Poco antes de las doce de la noche, en el escenario del Perifrico Norte y la calle Juan N. lvarez, los normalistas presentes vieron pasar una patrulla de la polica municipal.",
    "description": "Poco antes de las doce de la noche, en el escenario del Perifrico Norte y la calle Juan N. lvarez, los normalistas presentes vieron pasar una patrulla de la polica municipal.",
    "rain": "NULL",
    "timestamp": "2014-09-27 00:00:00.000000",
    "timestamp_precise": 0,
    "publicly_accessible": 0,
    "location_id": 4404,
    "source_id": 9553,
    "name": "escena del crimen-Juan Alvarez y Perif. Norte (18)",
    "latitude": 18.35761,
    "longitude": -99.53596,
    "extra_detail": "NULL"
  },
  {
    "id": 4404,
    "manual_id": 23133,
    "name_key": "Segn uno de los normalistas testigos, una de las camionetas de la polica municipal tena el vidrio de atrs roto.",
    "description": "Segn uno de los normalistas testigos, una de las camionetas de la polica municipal tena el vidrio de atrs roto.",
    "rain": "NULL",
    "timestamp": "2014-09-27 00:17:00.000000",
    "timestamp_precise": 0,
    "publicly_accessible": 0,
    "location_id": 4404,
    "source_id": 9555,
    "name": "escena del crimen-Juan Alvarez y Perif. Norte (18)",
    "latitude": 18.35761,
    "longitude": -99.53596,
    "extra_detail": "NULL"
  }]
  },
  {
  "location_id": 4405,
  "name": "escena del crimen-Juan Alvarez y Perif. Norte (19)",
  "latitude": 18.35763,
  "longitude": -99.53603,
  "events": [
  {
    "id": 4405,
    "manual_id": 2500,
    "name_key": "Segn el testimonio de los normalistas, unos 10 o 15 minutos antes de que empezara la rueda de prensa, los coches dejaron de circular por el Perifrico.",
    "description": "Segn el testimonio de los normalistas, unos 10 o 15 minutos antes de que empezara la rueda de prensa, los coches dejaron de circular por el Perifrico.",
    "rain": "NULL",
    "timestamp": "2014-09-27 00:00:00.000000",
    "timestamp_precise": 0,
    "publicly_accessible": 0,
    "location_id": 4405,
    "source_id": 9556,
    "name": "escena del crimen-Juan Alvarez y Perif. Norte (19)",
    "latitude": 18.35763,
    "longitude": -99.53603,
    "extra_detail": "NULL"
  },
  {
    "id": 4405,
    "manual_id": 22988,
    "name_key": "Despus fueron pasando 3 camionetas de la polica municipal y una camioneta roja de proteccin civil.",
    "description": "Despus fueron pasando 3 camionetas de la polica municipal y una camioneta roja de proteccin civil.",
    "rain": "NULL",
    "timestamp": "2014-09-27 00:15:00.000000",
    "timestamp_precise": 0,
    "publicly_accessible": 0,
    "location_id": 4405,
    "source_id": 9555,
    "name": "escena del crimen-Juan Alvarez y Perif. Norte (19)",
    "latitude": 18.35763,
    "longitude": -99.53603,
    "extra_detail": "NULL"
  },
  {
    "id": 4405,
    "manual_id": 2502,
    "name_key": "Cuando transcurra la conferencia se produjo un nuevo ataque contra los normalistas. Segn testigos, a las 0:30 horas pas una camioneta blanca con antena de radio con varias personas y un carro modelo I",
    "description": "Cuando transcurra la conferencia se produjo un nuevo ataque contra los normalistas. Segn testigos, a las 0:30 horas pas una camioneta blanca con antena de radio con varias personas y un carro modelo Icon negro despacio, tomando fotos de los normalistas.",
    "rain": "NULL",
    "timestamp": "2014-09-27 00:30:00.000000",
    "timestamp_precise": 1,
    "publicly_accessible": 0,
    "location_id": 4405,
    "source_id": 9557,
    "name": "escena del crimen-Juan Alvarez y Perif. Norte (19)",
    "latitude": 18.35763,
    "longitude": -99.53603,
    "extra_detail": "NULL"
  },
  {
    "id": 4405,
    "manual_id": 2504,
    "name_key": "La primera era la Ram. El taxi, el coche. Siento que haba ms porque eran muchos los que llegaron.",
    "description": "La primera era la Ram. El taxi, el coche. Siento que haba ms porque eran muchos los que llegaron.",
    "rain": "NULL",
    "timestamp": "2014-09-27 00:30:00.000000",
    "timestamp_precise": 0,
    "publicly_accessible": 0,
    "location_id": 4405,
    "source_id": 9557,
    "name": "escena del crimen-Juan Alvarez y Perif. Norte (19)",
    "latitude": 18.35763,
    "longitude": -99.53603,
    "extra_detail": "NULL"
  }]
  },
  {
  "location_id": 4406,
  "name": "escena del crimen-Juan Alvarez y Perif. Norte (21)",
  "latitude": 18.35769,
  "longitude": -99.53621,
  "events": [
  {
    "id": 4406,
    "manual_id": 2501,
    "name_key": "Despus de que pasaron las patrullas, pas una camioneta blanca de redila con un hombre en actitud de vigilancia y al parecer armado. Se estaba preparando apenas la rueda de prensa.",
    "description": "Despus de que pasaron las patrullas, pas una camioneta blanca de redila con un hombre en actitud de vigilancia y al parecer armado. Se estaba preparando apenas la rueda de prensa.",
    "rain": "NULL",
    "timestamp": "2014-09-27 00:30:00.000000",
    "timestamp_precise": "NULL",
    "publicly_accessible": 0,
    "location_id": 4406,
    "source_id": 9556,
    "name": "escena del crimen-Juan Alvarez y Perif. Norte (21)",
    "latitude": 18.35769,
    "longitude": -99.53621,
    "extra_detail": "NULL"
  }]
  },
  {
  "location_id": 4407,
  "name": "escena del crimen-Juan Alvarez y Perif. Norte (27)",
  "latitude": 18.3574,
  "longitude": -99.53585,
  "events": [
  {
    "id": 4407,
    "manual_id": 2503,
    "name_key": "Segn otros testigos, haba ms vehculos, incluyendo una patrulla de polica en dicho ataque",
    "description": "Segn otros testigos, haba ms vehculos, incluyendo una patrulla de polica en dicho ataque",
    "rain": "NULL",
    "timestamp": "2014-09-27 00:30:00.000000",
    "timestamp_precise": 0,
    "publicly_accessible": 0,
    "location_id": 4407,
    "source_id": 9557,
    "name": "escena del crimen-Juan Alvarez y Perif. Norte (27)",
    "latitude": 18.3574,
    "longitude": -99.53585,
    "extra_detail": "NULL"
  },
  {
    "id": 4407,
    "manual_id": 2505,
    "name_key": "La Patrulla estaba ms atrs como unos 10 metros a lo lejos estaban la patrulla, tena las caretas prendidas pero no gritaba, slo encendida",
    "description": "La Patrulla estaba ms atrs como unos 10 metros a lo lejos estaban la patrulla, tena las caretas prendidas pero no gritaba, slo encendida",
    "rain": "NULL",
    "timestamp": "2014-09-27 00:30:00.000000",
    "timestamp_precise": 0,
    "publicly_accessible": 0,
    "location_id": 4407,
    "source_id": 9557,
    "name": "escena del crimen-Juan Alvarez y Perif. Norte (27)",
    "latitude": 18.3574,
    "longitude": -99.53585,
    "extra_detail": "NULL"
  },
  {
    "id": 4407,
    "manual_id": 2506,
    "name_key": "Yo alcanc a ver una torreta de polica, o sea la sirena, yo es lo que alcanc noms a ver y ya lo siguiente fueron las detonaciones, en lo cual corro a donde estaban los autobuses",
    "description": "Yo alcanc a ver una torreta de polica, o sea la sirena, yo es lo que alcanc noms a ver y ya lo siguiente fueron las detonaciones, en lo cual corro a donde estaban los autobuses",
    "rain": "NULL",
    "timestamp": "2014-09-27 00:45:00.000000",
    "timestamp_precise": 0,
    "publicly_accessible": 0,
    "location_id": 4407,
    "source_id": 9557,
    "name": "escena del crimen-Juan Alvarez y Perif. Norte (27)",
    "latitude": 18.3574,
    "longitude": -99.53585,
    "extra_detail": "NULL"
  }]
  },
  {
  "location_id": 4408,
  "name": "escena del crimen-Juan Alvarez y Perif. Norte (26)",
  "latitude": 18.35739,
  "longitude": -99.53614,
  "events": [
  {
    "id": 4408,
    "manual_id": 2507,
    "name_key": "me tropiezo, porque estaba una maestra ah que se cay, me tropiezo con ella, caigo y me caen otros compaeros y lo que hago... escuch, trense al suelo, y lo que hicimos era cubrirnos de las balas",
    "description": "me tropiezo, porque estaba una maestra ah que se cay, me tropiezo con ella, caigo y me caen otros compaeros y lo que hago... escuch, trense al suelo, y lo que hicimos era cubrirnos de las balas",
    "rain": "NULL",
    "timestamp": "2014-09-27 00:46:00.000000",
    "timestamp_precise": 0,
    "publicly_accessible": 0,
    "location_id": 4408,
    "source_id": 9557,
    "name": "escena del crimen-Juan Alvarez y Perif. Norte (26)",
    "latitude": 18.35739,
    "longitude": -99.53614,
    "extra_detail": "NULL"
  },
  {
    "id": 4408,
    "manual_id": 2515,
    "name_key": "Edgar se arrastr por el suelo para tratar de llegar al primer autobs, el Costa Line 2012, pero no pudo y fue protegido por un grupo de normalistas",
    "description": "Edgar se arrastr por el suelo para tratar de llegar al primer autobs, el Costa Line 2012, pero no pudo y fue protegido por un grupo de normalistas",
    "rain": "NULL",
    "timestamp": "2014-09-27 00:46:00.000000",
    "timestamp_precise": "NULL",
    "publicly_accessible": 0,
    "location_id": 4408,
    "source_id": 9558,
    "name": "escena del crimen-Juan Alvarez y Perif. Norte (26)",
    "latitude": 18.35739,
    "longitude": -99.53614,
    "extra_detail": "NULL"
  },
  {
    "id": 4408,
    "manual_id": 2508,
    "name_key": "alcanzo a ver atrs, veo al compaero Edgar que corre, y al poco rato lo veo que cae, relata TC.",
    "description": "alcanzo a ver atrs, veo al compaero Edgar que corre, y al poco rato lo veo que cae, relata TC.",
    "rain": "NULL",
    "timestamp": "2014-09-27 00:47:00.000000",
    "timestamp_precise": 0,
    "publicly_accessible": 0,
    "location_id": 4408,
    "source_id": 9557,
    "name": "escena del crimen-Juan Alvarez y Perif. Norte (26)",
    "latitude": 18.35739,
    "longitude": -99.53614,
    "extra_detail": "NULL"
  },
  {
    "id": 4408,
    "manual_id": 2518,
    "name_key": "Estaban disparando sin parar, cesaron cuando cambiaron de cartucho o cargaron el arma. Yo segu arrastrndome como pude. Luego me par y me puse de pie, con mucha sangre. Fui caminando, no recuerdo ya si",
    "description": "Estaban disparando sin parar, cesaron cuando cambiaron de cartucho o cargaron el arma. Yo segu arrastrndome como pude. Luego me par y me puse de pie, con mucha sangre. Fui caminando, no recuerdo ya si cruc los tres autobuses, pero varios compaeros regresaron por m, relata el estudiante EV.",
    "rain": "NULL",
    "timestamp": "2014-09-27 00:48:00.000000",
    "timestamp_precise": "NULL",
    "publicly_accessible": 0,
    "location_id": 4408,
    "source_id": 9558,
    "name": "escena del crimen-Juan Alvarez y Perif. Norte (26)",
    "latitude": 18.35739,
    "longitude": -99.53614,
    "extra_detail": "NULL"
  }]
  },
  {
  "location_id": 4409,
  "name": "escena del crimen-Juan Alvarez y Perif. Norte (25)",
  "latitude": 18.35731,
  "longitude": -99.53602,
  "events": [
  {
    "id": 4409,
    "manual_id": 2511,
    "name_key": "cuando dejaron de tirar, as agachados nos fuimos arrastrndonos, cerca de un autolavado y ya estaban ah otros compaeros. Empezamos a saltar todos a una casa, estaba oscuro y nos protegimos, refiere A.",
    "description": "cuando dejaron de tirar, as agachados nos fuimos arrastrndonos, cerca de un autolavado y ya estaban ah otros compaeros. Empezamos a saltar todos a una casa, estaba oscuro y nos protegimos, refiere A.",
    "rain": "NULL",
    "timestamp": "2014-09-27 00:46:00.000000",
    "timestamp_precise": "NULL",
    "publicly_accessible": 0,
    "location_id": 4409,
    "source_id": 9557,
    "name": "escena del crimen-Juan Alvarez y Perif. Norte (25)",
    "latitude": 18.35731,
    "longitude": -99.53602,
    "extra_detail": "NULL"
  }]
  },
  {
  "location_id": 4410,
  "name": "escena del crimen-Juan Alvarez y Perif. Norte (29)",
  "latitude": 18.35713,
  "longitude": -99.53623,
  "events": [
  {
    "id": 4410,
    "manual_id": 2522,
    "name_key": "todos empezaron a correr, tambin vi como a cinco metros de donde yo\n me encontraba cay el cuerpo de una persona sin vida",
    "description": "todos empezaron a correr, tambin vi como a cinco metros de donde yo\n me encontraba cay el cuerpo de una persona sin vida",
    "rain": "NULL",
    "timestamp": "2014-09-27 00:45:00.000000",
    "timestamp_precise": "NULL",
    "publicly_accessible": 0,
    "location_id": 4410,
    "source_id": 9560,
    "name": "escena del crimen-Juan Alvarez y Perif. Norte (29)",
    "latitude": 18.35713,
    "longitude": -99.53623,
    "extra_detail": "NULL"
  },
  {
    "id": 4410,
    "manual_id": 9823,
    "name_key": "Despus de eso arribaron al lugar varios reporteros a tomar fotos a los autobuses, as como tambin llegaron personas adultas a auxiliar a los estudiantes; despus como a la hora y media aproximadamente d",
    "description": "Despus de eso arribaron al lugar varios reporteros a tomar fotos a los autobuses, as como tambin llegaron personas adultas a auxiliar a los estudiantes; despus como a la hora y media aproximadamente de lo que haba sucedido, estando los estudiantes en pequeos grupos dispersos en la zona del ataque y los autobuses varados yo me encontraba afuera de mi unidad observando la situacin, y de pronto escuch como una rfaga de balazos",
    "rain": "NULL",
    "timestamp": "2014-09-27 00:45:00.000000",
    "timestamp_precise": "NULL",
    "publicly_accessible": 0,
    "location_id": 4410,
    "source_id": 9559,
    "name": "escena del crimen-Juan Alvarez y Perif. Norte (29)",
    "latitude": 18.35713,
    "longitude": -99.53623,
    "extra_detail": "NULL"
  }]
  },
  {
  "location_id": 4411,
  "name": "escena del crimen-Juan Alvarez y Perif. Norte (2)",
  "latitude": 18.35736,
  "longitude": -99.53618,
  "events": [
  {
    "id": 4411,
    "manual_id": 9808,
    "name_key": "durando esto aproximadamente una hora, declar HBCS, chofer Costa Line 2012.",
    "description": "durando esto aproximadamente una hora, declar HBCS, chofer Costa Line 2012.",
    "rain": "NULL",
    "timestamp": "2014-09-26 21:43:00.000000",
    "timestamp_precise": 0,
    "publicly_accessible": 0,
    "location_id": 4411,
    "source_id": 9505,
    "name": "escena del crimen-Juan Alvarez y Perif. Norte (2)",
    "latitude": 18.35736,
    "longitude": -99.53618,
    "extra_detail": "NULL"
  },
  {
    "id": 4411,
    "manual_id": 2527,
    "name_key": "Julio Csar Mondragn, el normalista apodado Chilango que horas despus apareci asesinado y torturado, estaba sentado a un costado derecho del primer autobs.",
    "description": "Julio Csar Mondragn, el normalista apodado Chilango que horas despus apareci asesinado y torturado, estaba sentado a un costado derecho del primer autobs.",
    "rain": "NULL",
    "timestamp": "2014-09-27 00:45:00.000000",
    "timestamp_precise": 0,
    "publicly_accessible": 0,
    "location_id": 4411,
    "source_id": 9561,
    "name": "escena del crimen-Juan Alvarez y Perif. Norte (2)",
    "latitude": 18.35736,
    "longitude": -99.53618,
    "extra_detail": "NULL"
  }]
  },
  {
  "location_id": 4481,
  "name": "escena del crimen-Juan Alvarez y Perif. Norte (17)",
  "latitude": 18.35758,
  "longitude": -99.53605,
  "events": [
  {
    "id": 4481,
    "manual_id": 23133,
    "name_key": "En su declaracin ante la PGR del 21 de octubre de 2014, AMF dice: Pasada la media noche, con una ligera lluvia, se comienza a escuchar un estruendo fuerte, del lado izquierdo del Perifrico, ms fuerte",
    "description": "En su declaracin ante la PGR del 21 de octubre de 2014, AMF dice: Pasada la media noche, con una ligera lluvia, se comienza a escuchar un estruendo fuerte, del lado izquierdo del Perifrico, ms fuerte que la primera balacera, y se fue corriendo sobre perifrico. Pas una camioneta tipo RAM de proteccin civil color anaranjado. Llevaba tres tipos armados.",
    "rain": "NULL",
    "timestamp": "2014-09-27 00:00:00.000000",
    "timestamp_precise": 0,
    "publicly_accessible": 0,
    "location_id": 4481,
    "source_id": 9555,
    "name": "escena del crimen-Juan Alvarez y Perif. Norte (17)",
    "latitude": 18.35758,
    "longitude": -99.53605,
    "extra_detail": "NULL"
  },
  {
    "id": 4481,
    "manual_id": 23133,
    "name_key": "En esta ltima iba un joven moreno y se me quedaron viendo. Pasaban lento, y les ped ayuda, pero noms se quedaban viendo y nunca hicieron nada al respecto. Pasaron tres veces observando el panorama, re",
    "description": "En esta ltima iba un joven moreno y se me quedaron viendo. Pasaban lento, y les ped ayuda, pero noms se quedaban viendo y nunca hicieron nada al respecto. Pasaron tres veces observando el panorama, relata el testigo D.",
    "rain": "NULL",
    "timestamp": "2014-09-27 00:16:00.000000",
    "timestamp_precise": 0,
    "publicly_accessible": 0,
    "location_id": 4481,
    "source_id": 9555,
    "name": "escena del crimen-Juan Alvarez y Perif. Norte (17)",
    "latitude": 18.35758,
    "longitude": -99.53605,
    "extra_detail": "NULL"
  }]
  },
  {
  "location_id": 4482,
  "name": "escena del crimen-Juan Alvarez y Perif. Norte (16)",
  "latitude": 18.35763,
  "longitude": -99.53611,
  "events": [
  {
    "id": 4482,
    "manual_id": 9818,
    "name_key": "por el Perifrico norte a la altura de la calle lvarez de Oriente a Poniente frente al local denominado Hielos Laurita me percat que del lado izquierdo haba demasiada gente aglomerada, las cuales empez",
    "description": "por el Perifrico norte a la altura de la calle lvarez de Oriente a Poniente frente al local denominado Hielos Laurita me percat que del lado izquierdo haba demasiada gente aglomerada, las cuales empezaron a tomar fotos y al llegar a la calle de Jurez me dirig hacia el Centro, y ah mismo patrullamos cada quien por nuestro lado Declaracin ante la PGR del polica Alejandro Mota Romn.",
    "rain": "NULL",
    "timestamp": "2014-09-27 00:00:00.000000",
    "timestamp_precise": 0,
    "publicly_accessible": 0,
    "location_id": 4482,
    "source_id": 9553,
    "name": "escena del crimen-Juan Alvarez y Perif. Norte (16)",
    "latitude": 18.35763,
    "longitude": -99.53611,
    "extra_detail": "NULL"
  }]
  },
  {
  "location_id": 4483,
  "name": "escena del crimen-Juan Alvarez y Perif. Norte (22)",
  "latitude": 18.3576,
  "longitude": -99.53613,
  "events": [
  {
    "id": 4483,
    "manual_id": 9819,
    "name_key": "Fotografas tomadas por un testigo en el momento, a las que ha tenido acceso el GIEI, muestran el carro Icon negro al que se refirieron los normalistas",
    "description": "Fotografas tomadas por un testigo en el momento, a las que ha tenido acceso el GIEI, muestran el carro Icon negro al que se refirieron los normalistas",
    "rain": "NULL",
    "timestamp": "2014-09-27 00:30:00.000000",
    "timestamp_precise": 1,
    "publicly_accessible": 0,
    "location_id": 4483,
    "source_id": 9557,
    "name": "escena del crimen-Juan Alvarez y Perif. Norte (22)",
    "latitude": 18.3576,
    "longitude": -99.53613,
    "extra_detail": "NULL"
  }]}
]
